0001 1 1
0001 1 2
0002 1 1
0002 1 2
0003 1 1
0003 1 2
0003 1 3
0003 4 4
0004 1 1
0004 1 2
0004 1 3
0004 4 4
0005 1 1
0005 1 2
0005 1 3
0005 4 4
0006 10 1
0006 2 2
0006 2 3
0006 2 4
0006 5 5
0006 6 6
0006 10 7
0006 8 8
0006 8 9
0006 8 10
0006 10 11
0006 9 12
0006 10 13
0006 11 14
0006 12 15
0006 13 16
0006 8 17
0006 16 18
0006 11 19
0006 16 20
0006 16 21
0006 12 22
0006 12 23
0006 19 24
0006 1 25
0007 1 1
0007 4 2
0008 1 1
0008 4 2
0009 1 1
0009 2 2
0009 7 3
0009 4 4
0009 4 5
0009 5 6
0009 6 7
0009 5 8
0009 8 9
0009 9 10
0009 10 11
0009 7 12
0009 11 13
0009 12 14
0009 12 15
0009 1 16
0010 1 1
0010 1 2
0010 8 3
0010 3 4
0010 3 5
0010 4 6
0010 6 7
0010 5 8
0010 6 9
0010 7 10
0010 8 11
0010 9 12
0010 10 13
0010 10 14
0010 11 15
0010 12 16
0010 13 17
0010 12 18
0010 1 19
0011 1 1
0011 1 2
0012 3 1
0012 5 2
0012 13 3
0012 13 4
0012 11 5
0012 9 6
0012 10 7
0012 11 8
0012 9 9
0012 13 10
0012 11 11
0012 15 12
0012 16 13
0012 17 14
0012 6 15
0012 16 16
0012 13 17
0012 1 18
0013 1 1
0013 6 2
0013 4 3
0013 6 4
0013 7 5
0013 14 6
0013 10 7
0013 12 8
0013 8 9
0013 10 10
0013 14 11
0013 13 12
0013 14 13
0013 16 14
0013 16 15
0013 18 16
0013 13 17
0013 20 18
0013 22 19
0013 22 20
0013 1 21
0014 9 1
0014 11 2
0014 13 3
0014 4 4
0014 6 5
0014 5 6
0014 6 7
0014 18 8
0014 22 9
0014 10 10
0014 6 11
0014 16 12
0014 6 13
0014 12 14
0014 9 15
0014 6 16
0014 20 17
0015 1 1
0015 1 2
0015 3 3
0015 3 4
0016 1 1
0016 1 2
0017 1 1
0017 6 2
0017 3 3
0017 3 4
0017 6 5
0017 5 6
0017 7 7
0017 8 8
0017 8 9
0017 10 10
0017 8 11
0017 12 12
0017 10 13
0017 15 14
0017 16 15
0017 17 16
0017 18 17
0017 18 18
0017 20 19
0017 20 20
0017 22 21
0017 22 22
0017 1 23
0018 1 1
0018 2 2
0018 3 3
0018 3 4
0018 3 5
0018 4 6
0018 1 7
0019 1 1
0019 2 2
0019 2 3
0019 4 4
0019 5 5
0019 11 6
0019 7 7
0019 8 8
0019 9 9
0019 10 10
0019 11 11
0019 11 12
0019 12 13
0019 4 14
0019 14 15
0019 13 16
0019 1 17
0020 1 1
0020 4 2
0020 9 3
0020 2 4
0020 6 5
0020 9 6
0020 6 7
0020 9 8
0020 9 9
0020 9 10
0020 10 11
0020 9 12
0020 10 13
0020 12 14
0020 13 15
0020 14 16
0020 17 17
0020 6 18
0020 16 19
0020 12 20
0020 17 21
0020 17 22
0020 17 23
0020 1 24
0021 1 1
0021 2 2
0021 15 3
0021 4 4
0021 4 5
0021 5 6
0021 6 7
0021 6 8
0021 6 9
0021 7 10
0021 8 11
0021 11 12
0021 10 13
0021 10 14
0021 9 15
0021 15 16
0021 12 17
0021 12 18
0021 12 19
0021 13 20
0021 15 21
0021 15 22
0021 2 23
0022 1 1
0022 2 2
0022 2 3
0022 2 4
0022 4 5
0022 6 6
0022 7 7
0022 4 8
0022 9 9
0022 9 10
0023 1 1
0023 1 2
0023 7 3
0023 4 4
0023 5 5
0023 7 6
0023 8 7
0023 9 8
0023 9 9
0023 10 10
0023 11 11
0023 12 12
0023 13 13
0023 1 14
0024 1 1
0024 1 2
0024 1 3
0024 1 4
0025 1 1
0025 2 2
0025 20 3
0025 4 4
0025 4 5
0025 5 6
0025 8 7
0025 5 8
0025 20 9
0025 7 10
0025 8 11
0025 9 12
0025 10 13
0025 8 14
0025 12 15
0025 15 16
0025 5 17
0025 16 18
0025 18 19
0025 19 20
0025 20 21
0025 21 22
0025 22 23
0025 20 24
0025 25 25
0025 25 26
0025 1 27
0026 1 1
0026 1 2
0026 1 3
0026 1 4
0026 2 5
0027 1 1
0027 2 2
0027 2 3
0027 3 4
0027 4 5
0027 10 6
0027 5 7
0027 5 8
0027 10 9
0027 10 10
0027 11 11
0027 10 12
0027 7 13
0027 10 14
0027 10 15
0027 11 16
0028 1 1
0028 2 2
0028 3 3
0028 4 4
0028 5 5
0028 3 6
0028 6 7
0028 6 8
0029 7 1
0029 8 2
0029 8 3
0029 10 4
0029 21 5
0029 8 6
0029 5 7
0029 21 8
0029 10 9
0029 11 10
0029 12 11
0029 12 12
0029 13 13
0029 15 14
0029 16 15
0029 17 16
0029 19 17
0029 21 18
0029 19 19
0029 21 20
0029 22 21
0029 23 22
0029 1 23
0030 1 1
0030 10 2
0030 9 3
0030 3 4
0030 1 5
0030 3 6
0030 6 7
0030 5 8
0030 6 9
0030 6 10
0030 8 11
0030 7 12
0030 8 13
0030 10 14
0030 10 15
0030 11 16
0031 1 1
0031 5 2
0031 10 3
0031 19 4
0031 3 5
0031 7 6
0031 8 7
0031 19 8
0031 13 9
0031 10 10
0031 11 11
0031 12 12
0031 13 13
0031 14 14
0031 14 15
0031 10 16
0031 16 17
0031 17 18
0031 19 19
0031 12 20
0031 19 21
0031 19 22
0031 19 23
0031 7 24
0032 10 1
0032 2 2
0032 2 3
0032 3 4
0032 8 5
0032 8 6
0032 13 7
0032 6 8
0032 1 9
0032 8 10
0032 3 11
0032 4 12
0032 13 13
0032 6 14
0032 10 15
0032 11 16
0032 12 17
0032 8 18
0032 1 19
0033 10 1
0033 2 2
0033 1 3
0033 3 4
0033 6 5
0033 7 6
0033 15 7
0033 10 8
0033 9 9
0033 10 10
0033 1 11
0033 13 12
0033 13 13
0033 14 14
0033 16 15
0033 15 16
0033 19 17
0033 20 18
0033 6 19
0034 1 1
0034 4 2
0034 2 3
0034 3 4
0034 5 5
0034 4 6
0034 5 7
0034 7 8
0034 8 9
0034 4 10
0034 13 11
0034 4 12
0034 11 13
0034 14 14
0034 12 15
0034 14 16
0034 4 17
0034 15 18
0034 16 19
0034 17 20
0034 18 21
0034 4 22
0034 20 23
0034 20 24
0034 21 25
0034 22 26
0034 1 27
0035 1 1
0035 2 2
0035 3 3
0035 4 4
0035 5 5
0035 6 6
0035 7 7
0035 8 8
0035 9 9
0035 9 10
0035 10 11
0035 13 12
0035 11 13
0035 11 14
0035 12 15
0035 13 16
0035 15 17
0035 16 18
0035 13 19
0036 1 1
0036 2 2
0036 4 3
0036 3 4
0036 4 5
0036 6 6
0036 6 7
0036 7 8
0036 8 9
0036 9 10
0036 10 11
0036 11 12
0036 11 13
0036 12 14
0036 6 15
0036 1 16
0037 1 1
0037 1 2
0037 1 3
0037 1 4
0037 2 5
0037 2 6
0037 2 7
0038 1 1
0038 2 2
0038 2 3
0038 9 4
0038 5 5
0038 5 6
0038 4 7
0038 6 8
0038 4 9
0038 8 10
0038 8 11
0038 15 12
0038 8 13
0038 8 14
0038 8 15
0038 11 16
0038 11 17
0038 12 18
0038 8 19
0038 14 20
0038 15 21
0038 15 22
0038 15 23
0038 1 24
0039 1 1
0039 2 2
0039 3 3
0039 4 4
0039 5 5
0039 4 6
0039 6 7
0039 7 8
0039 9 9
0039 8 10
0039 10 11
0039 11 12
0039 14 13
0039 12 14
0039 13 15
0039 14 16
0040 1 1
0040 17 2
0040 2 3
0040 4 4
0040 6 5
0040 17 6
0040 7 7
0040 17 8
0040 2 9
0040 17 10
0040 10 11
0040 8 12
0040 10 13
0040 16 14
0040 17 15
0040 13 16
0040 17 17
0040 17 18
0040 14 19
0040 15 20
0040 7 21
0040 8 22
0040 23 23
0040 8 24
0040 23 25
0040 20 26
0041 1 1
0041 2 2
0041 3 3
0041 6 4
0041 7 5
0041 6 6
0041 9 7
0041 1 8
0041 11 9
0041 12 10
0041 13 11
0041 2 12
0042 1 1
0042 2 2
0042 3 3
0042 5 4
0042 16 5
0042 4 6
0042 4 7
0042 6 8
0042 5 9
0042 10 10
0042 6 11
0042 9 12
0042 8 13
0042 10 14
0042 12 15
0042 9 16
0042 18 17
0042 6 18
0042 14 19
0042 16 20
0042 12 21
0042 15 22
0042 16 23
0042 3 24
0042 6 25
0042 16 26
0042 20 27
0042 21 28
0043 2 1
0043 2 2
0043 2 3
0043 4 4
0043 1 5
0043 2 6
0043 2 7
0043 1 8
0044 1 1
0044 2 2
0044 3 3
0044 3 4
0044 4 5
0044 3 6
0044 7 7
0044 8 8
0044 9 9
0044 9 10
0044 19 11
0044 4 12
0044 16 13
0044 3 14
0044 3 15
0044 3 16
0044 17 17
0044 4 18
0044 13 19
0044 3 20
0044 20 21
0045 1 1
0045 4 2
0046 1 1
0046 4 2
0047 1 1
0047 18 2
0047 3 3
0047 3 4
0047 6 5
0047 8 6
0047 6 7
0047 7 8
0047 8 9
0047 10 10
0047 11 11
0047 14 12
0047 13 13
0047 18 14
0047 14 15
0047 18 16
0047 18 17
0047 18 18
0047 1 19
0048 1 1
0048 2 2
0048 9 3
0048 8 4
0048 4 5
0048 8 6
0048 6 7
0048 4 8
0048 8 9
0048 8 10
0048 10 11
0048 4 12
0048 12 13
0048 11 14
0048 13 15
0048 14 16
0048 15 17
0048 2 18
0048 2 19
0048 18 20
0048 19 21
0048 19 22
0048 23 23
0048 23 24
0048 22 25
0048 22 26
0048 1 27
0049 4 1
0049 9 2
0049 5 3
0049 6 4
0049 6 5
0049 6 6
0049 7 7
0049 8 8
0049 6 9
0049 6 10
0049 9 11
0049 9 12
0049 9 13
0049 9 14
0049 10 15
0049 11 16
0049 12 17
0049 12 18
0050 4 1
0050 2 2
0050 2 3
0050 4 4
0050 5 5
0050 15 6
0050 6 7
0050 8 8
0050 13 9
0050 12 10
0050 12 11
0050 19 12
0050 16 13
0050 15 14
0050 13 15
0050 11 16
0050 15 17
0050 15 18
0050 15 19
0050 2 20
0051 6 1
0051 8 2
0051 5 3
0051 3 4
0051 4 5
0051 5 6
0051 6 7
0051 12 8
0051 6 9
0051 8 10
0051 18 11
0051 18 12
0051 18 13
0051 6 14
0051 18 15
0051 16 16
0051 19 17
0051 2 18
0051 2 19
0051 9 20
0051 21 21
0051 23 22
0051 22 23
0051 12 24
0052 1 1
0052 2 2
0052 2 3
0052 8 4
0052 8 5
0052 9 6
0052 9 7
0052 4 8
0052 12 9
0052 14 10
0052 7 11
0052 14 12
0052 14 13
0052 11 14
0052 14 15
0052 13 16
0052 10 17
0052 12 18
0052 14 19
0052 13 20
0052 12 21
0052 13 22
0052 13 23
0052 14 24
0052 1 25
0053 7 1
0053 2 2
0053 2 3
0053 11 4
0053 6 5
0053 13 6
0053 11 7
0053 14 8
0053 9 9
0053 16 10
0053 17 11
0053 16 12
0053 17 13
0053 15 14
0053 19 15
0053 20 16
0053 16 17
0053 7 18
0053 17 19
0053 3 20
0053 7 21
0053 7 22
0053 20 23
0054 1 1
0054 3 2
0054 2 3
0054 3 4
0054 11 5
0054 1 6
0054 5 7
0054 6 8
0054 8 9
0054 8 10
0054 10 11
0054 10 12
0054 12 13
0054 13 14
0054 5 15
0054 14 16
0055 4 1
0055 6 2
0055 3 3
0055 8 4
0055 8 5
0055 7 6
0055 8 7
0055 8 8
0055 9 9
0055 9 10
0055 10 11
0055 11 12
0055 11 13
0055 12 14
0055 12 15
0055 13 16
0055 13 17
0055 14 18
0055 15 19
0055 8 20
0055 4 21
0055 8 22
0055 17 23
0055 18 24
0055 19 25
0055 21 26
0055 1 27
0056 1 1
0056 2 2
0056 3 3
0056 3 4
0056 4 5
0056 5 6
0056 5 7
0056 5 8
0056 1 9
0057 1 1
0057 2 2
0057 3 3
0057 3 4
0057 22 5
0057 6 6
0057 24 7
0057 7 8
0057 5 9
0057 7 10
0057 8 11
0057 11 12
0057 12 13
0057 10 14
0057 17 15
0057 13 16
0057 12 17
0057 13 18
0057 14 19
0057 22 20
0057 25 21
0057 11 22
0057 16 23
0057 17 24
0057 17 25
0057 17 26
0057 24 27
0057 24 28
0057 20 29
0057 1 30
0058 3 1
0058 4 2
0058 8 3
0058 9 4
0058 7 5
0058 8 6
0058 9 7
0058 9 8
0058 10 9
0058 8 10
0058 11 11
0058 9 12
0058 9 13
0058 17 14
0058 1 15
0058 9 16
0058 17 17
0059 1 1
0059 3 2
0059 5 3
0059 3 4
0059 2 5
0059 6 6
0059 6 7
0059 6 8
0059 6 9
0059 7 10
0059 8 11
0059 11 12
0059 11 13
0059 11 14
0059 7 15
0059 13 16
0059 9 17
0059 15 18
0059 1 19
0060 4 1
0060 6 2
0060 8 3
0060 3 4
0060 6 5
0060 21 6
0060 10 7
0060 12 8
0060 7 9
0060 11 10
0060 13 11
0060 8 12
0060 14 13
0060 2 14
0060 19 15
0060 16 16
0060 17 17
0060 18 18
0060 20 19
0060 18 20
0060 21 21
0060 22 22
0060 20 23
0060 24 24
0060 26 25
0060 1 26
0061 1 1
0061 2 2
0061 5 3
0061 4 4
0061 4 5
0061 5 6
0061 10 7
0061 10 8
0061 10 9
0062 1 1
0062 2 2
0062 2 3
0062 3 4
0062 5 5
0062 4 6
0062 6 7
0062 7 8
0062 7 9
0062 9 10
0062 9 11
0062 10 12
0062 2 13
0063 1 1
0063 8 2
0063 8 3
0063 8 4
0063 4 5
0063 9 6
0063 6 7
0063 6 8
0063 6 9
0063 8 10
0063 7 11
0063 8 12
0063 7 13
0063 8 14
0063 10 15
0063 1 16
0064 1 1
0064 2 2
0064 2 3
0064 1 4
0064 3 5
0064 3 6
0064 8 7
0064 15 8
0064 8 9
0064 7 10
0064 6 11
0064 10 12
0064 12 13
0064 6 14
0064 8 15
0064 9 16
0064 10 17
0064 18 18
0064 10 19
0064 17 20
0064 14 21
0064 16 22
0064 12 23
0064 14 24
0064 5 25
0064 17 26
0064 6 27
0064 19 28
0064 1 29
0065 1 1
0065 1 2
0065 1 3
0066 1 1
0066 2 2
0066 1 3
0066 10 4
0066 4 5
0066 5 6
0066 19 7
0066 17 8
0066 23 9
0066 13 10
0066 10 11
0066 15 12
0066 16 13
0066 23 14
0066 17 15
0066 20 16
0066 19 17
0066 23 18
0066 19 19
0066 23 20
0066 23 21
0066 23 22
0066 25 23
0066 26 24
0066 27 25
0066 28 26
0066 1 27
0067 1 1
0067 1 2
0068 1 1
0068 26 2
0068 4 3
0068 2 4
0068 6 5
0068 7 6
0068 8 7
0068 26 8
0068 18 9
0068 9 10
0068 6 11
0068 11 12
0068 26 13
0068 12 14
0068 14 15
0068 16 16
0068 26 17
0068 17 18
0068 21 19
0068 26 20
0068 21 21
0068 20 22
0068 23 23
0068 26 24
0068 24 25
0068 1 26
0069 1 1
0069 3 2
0069 17 3
0069 4 4
0069 6 5
0069 8 6
0069 5 7
0069 16 8
0069 10 9
0069 8 10
0069 10 11
0069 11 12
0069 11 13
0069 3 14
0069 14 15
0069 14 16
0069 17 17
0069 16 18
0069 17 19
0069 2 20
0069 19 21
0069 20 22
0069 22 23
0069 23 24
0069 25 25
0069 25 26
0069 25 27
0069 28 28
0070 1 1
0070 3 2
0070 4 3
0070 5 4
0070 6 5
0070 7 6
0070 3 7
0070 6 8
0070 8 9
0070 10 10
0070 8 11
0070 3 12
0070 15 13
0070 7 14
0070 3 15
0070 1 16
0071 1 1
0071 1 2
0071 1 3
0071 3 4
0071 3 5
0071 4 6
0071 4 7
0071 7 8
0071 5 9
0071 6 10
0071 7 11
0071 8 12
0071 7 13
0071 8 14
0071 9 15
0071 12 16
0071 10 17
0071 11 18
0071 12 19
0071 11 20
0072 1 1
0072 9 2
0072 10 3
0072 28 4
0072 18 5
0072 7 6
0072 8 7
0072 9 8
0072 9 9
0072 25 10
0072 13 11
0072 14 12
0072 15 13
0072 12 14
0072 16 15
0072 17 16
0072 6 17
0072 18 18
0072 12 19
0072 16 20
0072 17 21
0072 18 22
0072 22 23
0072 18 24
0072 28 25
0072 28 26
0072 28 27
0072 28 28
0072 1 29
0073 1 1
0073 1 2
0073 2 3
0073 3 4
0073 5 5
0073 9 6
0073 6 7
0073 9 8
0073 6 9
0073 9 10
0073 10 11
0073 3 12
0073 9 13
0073 12 14
0073 11 15
0073 9 16
0073 9 17
0073 14 18
0074 1 1
0074 2 2
0074 11 3
0074 4 4
0074 4 5
0074 5 6
0074 5 7
0074 5 8
0074 7 9
0074 8 10
0074 9 11
0074 11 12
0074 12 13
0074 8 14
0074 15 15
0074 14 16
0074 12 17
0074 16 18
0074 15 19
0074 1 20
0075 13 1
0075 1 2
0075 2 3
0075 2 4
0075 5 5
0075 15 6
0075 13 7
0075 4 8
0075 5 9
0075 7 10
0075 13 11
0075 13 12
0075 15 13
0075 13 14
0075 13 15
0075 14 16
0076 1 1
0076 4 2
0076 4 3
0076 5 4
0076 7 5
0076 8 6
0076 9 7
0076 10 8
0076 1 9
0077 1 1
0077 2 2
0077 3 3
0077 4 4
0077 1 5
0078 1 1
0078 2 2
0078 4 3
0078 2 4
0078 4 5
0078 2 6
0078 2 7
0078 4 8
0078 4 9
0078 1 10
0079 1 1
0079 1 2
0080 1 1
0080 2 2
0080 12 3
0080 4 4
0080 12 5
0080 7 6
0080 7 7
0080 4 8
0080 4 9
0080 6 10
0080 12 11
0080 5 12
0080 5 13
0080 12 14
0080 11 15
0080 12 16
0080 14 17
0080 14 18
0080 17 19
0080 18 20
0080 12 21
0080 17 22
0080 12 23
0080 1 24
0081 1 1
0081 2 2
0081 8 3
0081 5 4
0081 4 5
0081 8 6
0081 6 7
0081 4 8
0081 8 9
0081 8 10
0081 7 11
0081 10 12
0081 11 13
0081 1 14
0082 1 1
0082 4 2
0082 4 3
0082 10 4
0082 6 5
0082 7 6
0082 7 7
0082 10 8
0082 10 9
0082 7 10
0082 13 11
0082 7 12
0082 12 13
0082 14 14
0082 13 15
0082 16 16
0082 18 17
0082 15 18
0082 17 19
0082 19 20
0082 20 21
0082 21 22
0082 1 23
0083 1 1
0083 6 2
0083 3 3
0083 1 4
0083 9 5
0083 2 6
0083 2 7
0083 6 8
0083 13 9
0083 2 10
0083 7 11
0083 9 12
0083 13 13
0083 2 14
0083 11 15
0083 11 16
0083 2 17
0083 13 18
0083 3 19
0083 12 20
0083 12 21
0083 13 22
0083 7 23
0083 16 24
0083 16 25
0083 17 26
0083 17 27
0083 16 28
0083 18 29
0083 5 30
0084 1 1
0084 2 2
0084 3 3
0084 8 4
0084 8 5
0084 14 6
0084 10 7
0084 8 8
0084 5 9
0084 10 10
0084 14 11
0084 16 12
0084 14 13
0084 19 14
0084 18 15
0084 18 16
0084 19 17
0084 10 18
0084 21 19
0084 23 20
0084 15 21
0084 22 22
0084 16 23
0084 1 24
0085 1 1
0085 6 2
0085 2 3
0085 3 4
0085 4 5
0085 5 6
0085 4 7
0085 9 8
0085 6 9
0085 6 10
0085 9 11
0085 13 12
0085 13 13
0085 1 14
0086 1 1
0086 3 2
0086 2 3
0086 4 4
0086 3 5
0086 4 6
0086 4 7
0086 5 8
0086 6 9
0086 6 10
0086 14 11
0086 3 12
0086 8 13
0086 9 14
0086 10 15
0086 8 16
0086 14 17
0086 10 18
0086 8 19
0086 14 20
0086 1 21
0087 1 1
0087 2 2
0087 10 3
0087 2 4
0087 3 5
0087 8 6
0087 6 7
0087 5 8
0087 8 9
0087 7 10
0087 7 11
0087 4 12
0087 9 13
0087 10 14
0087 11 15
0087 12 16
0087 1 17
0088 1 1
0088 5 2
0088 3 3
0088 7 4
0088 2 5
0088 1 6
0088 2 7
0088 3 8
0088 2 9
0088 5 10
0088 6 11
0088 7 12
0088 7 13
0088 9 14
0088 10 15
0088 13 16
0088 13 17
0088 13 18
0088 8 19
0088 13 20
0088 12 21
0088 1 22
0089 1 1
0089 1 2
0089 2 3
0089 3 4
0089 7 5
0089 2 6
0089 3 7
0089 5 8
0089 9 9
0089 10 10
0089 3 11
0089 19 12
0089 15 13
0089 17 14
0089 15 15
0089 14 16
0089 13 17
0089 16 18
0089 12 19
0089 20 20
0089 8 21
0089 21 22
0089 22 23
0089 24 24
0089 23 25
0089 1 26
0090 1 1
0090 2 2
0090 2 3
0090 3 4
0090 5 5
0090 4 6
0090 5 7
0090 5 8
0090 8 9
0090 8 10
0090 8 11
0090 9 12
0090 8 13
0090 8 14
0090 8 15
0090 12 16
0090 10 17
0090 11 18
0090 12 19
0090 14 20
0090 14 21
0090 1 22
0091 1 1
0091 3 2
0091 4 3
0091 4 4
0091 3 5
0091 7 6
0091 6 7
0091 7 8
0091 8 9
0091 10 10
0091 8 11
0091 8 12
0091 8 13
0091 14 14
0091 8 15
0091 6 16
0092 1 1
0092 2 2
0092 2 3
0092 5 4
0092 4 5
0092 6 6
0092 8 7
0092 10 8
0092 11 9
0092 13 10
0092 5 11
0092 16 12
0092 8 13
0092 3 14
0092 15 15
0092 8 16
0092 9 17
0092 19 18
0092 20 19
0093 5 1
0093 5 2
0093 5 3
0093 22 4
0093 6 5
0093 22 6
0093 2 7
0093 11 8
0093 22 9
0093 12 10
0093 10 11
0093 12 12
0093 14 13
0093 16 14
0093 22 15
0093 14 16
0093 18 17
0093 19 18
0093 22 19
0093 21 20
0093 22 21
0093 1 22
0094 1 1
0094 2 2
0094 3 3
0094 4 4
0094 5 5
0094 6 6
0094 8 7
0094 8 8
0094 23 9
0094 10 10
0094 11 11
0094 9 12
0094 18 13
0094 11 14
0094 12 15
0094 13 16
0094 6 17
0094 14 18
0094 18 19
0094 11 20
0094 3 21
0094 23 22
0094 3 23
0094 23 24
0095 13 1
0095 13 2
0095 13 3
0095 6 4
0095 13 5
0095 7 6
0095 7 7
0095 9 8
0095 10 9
0095 7 10
0095 7 11
0095 13 12
0095 14 13
0095 2 14
0095 16 15
0095 14 16
0096 1 1
0096 3 2
0096 2 3
0096 3 4
0096 2 5
0096 5 6
0096 5 7
0096 7 8
0096 8 9
0096 9 10
0096 9 11
0096 11 12
0096 11 13
0096 1 14
0097 5 1
0097 1 2
0097 8 3
0097 4 4
0097 5 5
0097 6 6
0097 8 7
0097 7 8
0097 11 9
0097 12 10
0097 19 11
0097 18 12
0097 16 13
0097 11 14
0097 22 15
0097 15 16
0097 15 17
0097 16 18
0097 13 19
0097 23 20
0097 23 21
0097 23 22
0098 1 1
0098 1 2
0098 1 3
0098 3 4
0098 4 5
0098 6 6
0098 7 7
0098 6 8
0098 7 9
0098 8 10
0098 14 11
0098 16 12
0098 10 13
0098 13 14
0098 14 15
0098 15 16
0098 13 17
0098 14 18
0098 16 19
0098 16 20
0098 17 21
0098 17 22
0099 1 1
0099 2 2
0099 3 3
0099 4 4
0099 5 5
0100 8 1
0100 10 2
0100 1 3
0100 2 4
0100 3 5
0100 3 6
0100 8 7
0100 8 8
0100 6 9
0100 10 10
0100 15 11
0100 15 12
0100 2 13
0100 13 14
0100 15 15
0100 16 16
0100 2 17
0100 15 18
0100 24 19
0100 19 20
0100 20 21
0100 26 22
0100 15 23
0100 24 24
0100 24 25
0100 20 26
0100 26 27
0100 27 28
0100 1 29
0101 1 1
0101 8 2
0101 8 3
0101 2 4
0101 6 5
0101 8 6
0101 4 7
0101 5 8
0101 1 9
0102 1 1
0102 2 2
0102 5 3
0102 2 4
0102 3 5
0102 4 6
0102 5 7
0102 6 8
0102 10 9
0102 7 10
0102 10 11
0102 13 12
0102 13 13
0102 1 14
0103 14 1
0103 14 2
0103 1 3
0103 2 4
0103 3 5
0103 6 6
0103 1 7
0103 8 8
0103 9 9
0103 1 10
0103 19 11
0103 18 12
0103 9 13
0103 1 14
0103 14 15
0103 21 16
0103 13 17
0103 11 18
0103 14 19
0103 12 20
0103 9 21
0103 13 22
0103 14 23
0103 15 24
0103 14 25
0103 1 26
0104 4 1
0104 11 2
0104 4 3
0104 1 4
0104 7 5
0104 6 6
0104 4 7
0104 5 8
0104 7 9
0104 11 10
0104 10 11
0104 11 12
0104 12 13
0104 12 14
0105 1 1
0105 2 2
0105 5 3
0105 3 4
0105 2 5
0105 3 6
0105 3 7
0105 3 8
0105 3 9
0105 3 10
0105 5 11
0105 4 12
0105 7 13
0105 6 14
0105 7 15
0105 8 16
0105 1 17
0106 1 1
0106 2 2
0106 6 3
0106 4 4
0106 4 5
0106 5 6
0106 5 7
0106 7 8
0106 6 9
0106 9 10
0106 13 11
0106 10 12
0106 11 13
0106 12 14
0106 12 15
0106 12 16
0106 13 17
0107 1 1
0107 2 2
0107 2 3
0107 4 4
0107 2 5
0107 3 6
0107 4 7
0107 5 8
0107 7 9
0107 9 10
0107 5 11
0107 9 12
0107 7 13
0107 14 14
0107 7 15
0107 21 16
0107 11 17
0107 12 18
0107 4 19
0107 14 20
0107 4 21
0107 15 22
0107 7 23
0107 18 24
0107 5 25
0107 18 26
0107 21 27
0107 21 28
0107 21 29
0107 1 30
0108 1 1
0108 2 2
0108 4 3
0108 5 4
0108 4 5
0108 6 6
0108 8 7
0108 6 8
0108 7 9
0108 11 10
0108 11 11
0108 12 12
0108 13 13
0108 10 14
0108 15 15
0108 11 16
0108 10 17
0108 7 18
0108 11 19
0108 17 20
0108 10 21
0108 1 22
0108 20 23
0108 1 24
0109 1 1
0109 2 2
0109 3 3
0109 4 4
0109 5 5
0109 5 6
0109 6 7
0109 5 8
0109 7 9
0109 2 10
0109 10 11
0109 11 12
0109 11 13
0109 6 14
0109 4 15
0109 13 16
0109 6 17
0109 4 18
0109 16 19
0109 17 20
0109 4 21
0109 5 22
0109 1 23
0110 1 1
0110 3 2
0110 4 3
0110 3 4
0110 6 5
0110 7 6
0110 1 7
0111 1 1
0111 3 2
0111 3 3
0111 3 4
0111 4 5
0111 4 6
0111 5 7
0111 7 8
0111 4 9
0111 8 10
0111 11 11
0111 11 12
0111 11 13
0111 12 14
0111 1 15
0112 1 1
0112 1 2
0112 4 3
0112 3 4
0112 5 5
0112 4 6
0112 7 7
0112 5 8
0112 8 9
0112 9 10
0112 10 11
0112 10 12
0112 4 13
0112 11 14
0112 4 15
0112 13 16
0112 14 17
0112 15 18
0112 17 19
0112 21 20
0112 8 21
0112 19 22
0112 19 23
0112 13 24
0112 22 25
0112 21 26
0112 1 27
0113 1 1
0113 2 2
0113 2 3
0113 5 4
0113 5 5
0113 1 6
0114 1 1
0114 1 2
0114 3 3
0114 4 4
0114 5 5
0114 6 6
0114 7 7
0114 4 8
0114 9 9
0114 11 10
0114 4 11
0114 9 12
0114 10 13
0114 12 14
0114 15 15
0114 13 16
0114 16 17
0114 17 18
0114 15 19
0114 21 20
0114 14 21
0114 15 22
0114 4 23
0114 23 24
0114 24 25
0114 1 26
0115 8 1
0115 2 2
0115 2 3
0115 8 4
0115 5 5
0115 4 6
0115 6 7
0115 7 8
0115 8 9
0115 9 10
0116 1 1
0116 1 2
0116 3 3
0116 4 4
0116 4 5
0116 3 6
0117 1 1
0117 1 2
0117 3 3
0117 3 4
0117 4 5
0117 5 6
0117 6 7
0117 5 8
0117 3 9
0117 9 10
0117 5 11
0117 10 12
0117 12 13
0117 14 14
0117 14 15
0117 16 16
0117 18 17
0117 17 18
0117 18 19
0117 19 20
0117 20 21
0117 20 22
0118 1 1
0118 3 2
0118 2 3
0118 5 4
0118 6 5
0118 12 6
0118 2 7
0118 8 8
0118 9 9
0118 10 10
0118 12 11
0118 12 12
0118 12 13
0118 9 14
0118 12 15
0118 1 16
0119 1 1
0119 2 2
0119 3 3
0119 5 4
0119 4 5
0119 5 6
0119 5 7
0119 5 8
0119 9 9
0119 11 10
0119 7 11
0119 19 12
0119 10 13
0119 15 14
0119 2 15
0119 16 16
0119 17 17
0119 13 18
0119 16 19
0119 17 20
0119 19 21
0119 20 22
0119 20 23
0119 22 24
0119 19 25
0119 24 26
0119 25 27
0119 25 28
0120 1 1
0120 1 2
0120 2 3
0120 4 4
0120 4 5
0120 6 6
0120 7 7
0120 5 8
0120 6 9
0120 5 10
0121 13 1
0121 13 2
0121 13 3
0121 16 4
0121 3 5
0121 9 6
0121 11 7
0121 5 8
0121 13 9
0121 10 10
0121 13 11
0121 18 12
0121 13 13
0121 13 14
0121 10 15
0121 2 16
0121 22 17
0121 1 18
0122 1 1
0122 2 2
0122 12 3
0122 4 4
0122 4 5
0122 13 6
0122 12 7
0122 6 8
0122 5 9
0122 5 10
0122 12 11
0122 7 12
0122 9 13
0122 10 14
0122 7 15
0122 12 16
0122 10 17
0122 14 18
0122 6 19
0122 14 20
0122 13 21
0122 10 22
0122 13 23
0122 10 24
0122 14 25
0122 13 26
0122 1 27
0123 2 1
0123 2 2
0123 2 3
0123 7 4
0123 2 5
0123 7 6
0123 8 7
0123 7 8
0123 7 9
0123 12 10
0123 8 11
0123 15 12
0123 14 13
0123 7 14
0123 18 15
0123 19 16
0123 17 17
0123 18 18
0123 7 19
0123 20 20
0123 22 21
0123 21 22
0123 2 23
0124 1 1
0124 1 2
0125 1 1
0125 2 2
0125 3 3
0125 9 4
0125 9 5
0125 7 6
0125 5 7
0125 9 8
0125 9 9
0125 7 10
0125 8 11
0125 12 12
0125 20 13
0125 8 14
0125 9 15
0125 10 16
0125 18 17
0125 14 18
0125 11 19
0125 2 20
0125 9 21
0125 23 22
0125 24 23
0125 25 24
0125 1 25
0126 6 1
0126 8 2
0126 14 3
0126 6 4
0126 3 5
0126 4 6
0126 14 7
0126 6 8
0126 13 9
0126 14 10
0126 12 11
0126 14 12
0126 13 13
0126 1 14
0127 1 1
0127 2 2
0127 2 3
0127 4 4
0127 4 5
0127 5 6
0127 6 7
0127 7 8
0127 10 9
0127 18 10
0127 12 11
0127 13 12
0127 15 13
0127 15 14
0127 4 15
0127 18 16
0127 19 17
0127 18 18
0127 6 19
0127 20 20
0127 25 21
0127 8 22
0127 18 23
0127 1 24
0128 1 1
0128 2 2
0128 2 3
0128 3 4
0128 5 5
0128 3 6
0128 5 7
0128 4 8
0128 8 9
0128 10 10
0128 9 11
0128 8 12
0128 10 13
0128 11 14
0128 7 15
0128 16 16
0128 16 17
0128 14 18
0128 15 19
0128 6 20
0128 9 21
0128 18 22
0128 8 23
0128 18 24
0128 19 25
0128 19 26
0129 4 1
0129 1 2
0129 2 3
0129 1 4
0129 1 5
0129 4 6
0129 5 7
0129 1 8
0129 5 9
0129 11 10
0129 12 11
0129 14 12
0129 12 13
0129 4 14
0129 14 15
0129 4 16
0129 4 17
0129 16 18
0129 9 19
0130 4 1
0130 4 2
0130 3 3
0130 10 4
0130 11 5
0130 7 6
0130 4 7
0130 4 8
0130 7 9
0130 11 10
0131 3 1
0131 4 2
0131 2 3
0131 19 4
0131 18 5
0131 5 6
0131 7 7
0131 11 8
0131 21 9
0131 14 10
0131 7 11
0131 16 12
0131 17 13
0131 21 14
0131 8 15
0131 19 16
0131 8 17
0131 21 18
0131 1 19
0132 1 1
0132 2 2
0132 6 3
0132 4 4
0132 4 5
0132 6 6
0132 7 7
0132 1 8
0132 9 9
0132 4 10
0132 9 11
0133 1 1
0133 2 2
0133 4 3
0133 3 4
0133 4 5
0133 3 6
0133 6 7
0133 6 8
0133 6 9
0133 6 10
0133 7 11
0134 1 1
0134 2 2
0134 2 3
0134 2 4
0134 4 5
0134 5 6
0134 5 7
0134 7 8
0134 7 9
0134 8 10
0134 10 11
0134 11 12
0134 10 13
0134 9 14
0134 12 15
0134 11 16
0134 12 17
0135 1 1
0135 2 2
0135 4 3
0135 5 4
0135 4 5
0135 4 6
0135 4 7
0135 5 8
0135 5 9
0135 1 10
0135 5 11
0135 1 12
0136 1 1
0136 5 2
0136 6 3
0136 7 4
0136 8 5
0136 10 6
0136 6 7
0136 12 8
0136 5 9
0136 14 10
0136 10 11
0136 12 12
0136 16 13
0136 16 14
0136 3 15
0137 1 1
0137 3 2
0137 2 3
0137 4 4
0137 5 5
0137 6 6
0137 7 7
0137 8 8
0137 9 9
0137 10 10
0137 13 11
0137 19 12
0137 13 13
0137 8 14
0137 11 15
0137 14 16
0137 15 17
0137 1 18
0138 1 1
0138 6 2
0138 6 3
0138 1 4
0138 1 5
0138 2 6
0138 6 7
0138 6 8
0138 6 9
0138 1 10
0139 3 1
0139 3 2
0139 4 3
0139 5 4
0139 9 5
0139 5 6
0139 5 7
0139 8 8
0139 5 9
0139 5 10
0139 9 11
0139 4 12
0139 5 13
0139 11 14
0139 12 15
0139 5 16
0139 5 17
0139 1 18
0140 1 1
0140 4 2
0140 2 3
0140 4 4
0140 6 5
0140 8 6
0140 7 7
0140 8 8
0140 10 9
0140 11 10
0140 1 11
0141 1 1
0141 2 2
0141 2 3
0141 4 4
0141 4 5
0141 6 6
0141 8 7
0141 8 8
0141 5 9
0141 8 10
0141 8 11
0141 10 12
0141 12 13
0141 13 14
0141 13 15
0141 15 16
0141 16 17
0141 17 18
0141 17 19
0142 1 1
0142 3 2
0142 2 3
0142 3 4
0142 5 5
0142 3 6
0142 5 7
0142 5 8
0142 4 9
0142 7 10
0142 7 11
0142 15 12
0142 15 13
0142 12 14
0142 12 15
0142 15 16
0142 14 17
0142 12 18
0142 15 19
0142 16 20
0142 18 21
0142 18 22
0142 1 23
0143 1 1
0143 2 2
0143 3 3
0143 4 4
0143 5 5
0143 6 6
0143 6 7
0143 8 8
0143 1 9
0144 2 1
0144 4 2
0144 1 3
0144 3 4
0144 4 5
0144 15 6
0144 7 7
0144 7 8
0144 8 9
0144 10 10
0144 20 11
0144 12 12
0144 21 13
0144 21 14
0144 16 15
0144 16 16
0144 2 17
0144 18 18
0144 21 19
0144 22 20
0144 21 21
0144 22 22
0144 10 23
0144 24 24
0144 26 25
0144 1 26
0145 1 1
0145 2 2
0145 2 3
0145 3 4
0145 3 5
0146 1 1
0146 1 2
0146 4 3
0146 10 4
0146 4 5
0146 5 6
0146 5 7
0146 7 8
0146 6 9
0146 7 10
0146 8 11
0146 9 12
0146 1 13
0147 1 1
0147 4 2
0147 12 3
0147 12 4
0147 10 5
0147 8 6
0147 12 7
0147 11 8
0147 1 9
0148 1 1
0148 2 2
0148 3 3
0148 1 4
0148 5 5
0148 6 6
0148 7 7
0148 8 8
0148 9 9
0148 6 10
0148 11 11
0148 12 12
0148 7 13
0148 11 14
0148 6 15
0148 11 16
0148 16 17
0148 16 18
0148 16 19
0148 6 20
0148 1 21
0148 23 22
0148 2 23
0148 17 24
0148 20 25
0148 20 26
0148 22 27
0148 8 28
0148 23 29
0148 1 30
0149 1 1
0149 2 2
0149 14 3
0149 4 4
0149 4 5
0149 5 6
0149 5 7
0149 8 8
0149 7 9
0149 6 10
0149 7 11
0149 10 12
0149 9 13
0149 8 14
0149 11 15
0149 13 16
0149 8 17
0149 12 18
0149 14 19
0150 26 1
0150 3 2
0150 6 3
0150 8 4
0150 22 5
0150 5 6
0150 6 7
0150 20 8
0150 8 9
0150 10 10
0150 9 11
0150 5 12
0150 1 13
0150 16 14
0150 13 15
0150 15 16
0150 17 17
0150 5 18
0150 20 19
0150 22 20
0150 22 21
0150 23 22
0150 24 23
0150 24 24
0150 20 25
0150 24 26
0150 1 27
0150 26 28
0150 1 29
0151 1 1
0151 10 2
0151 3 3
0151 3 4
0151 11 5
0151 10 6
0151 5 7
0151 11 8
0151 10 9
0151 10 10
0151 10 11
0151 10 12
0151 7 13
0151 8 14
0151 9 15
0151 8 16
0151 1 17
0152 2 1
0152 2 2
0152 2 3
0152 3 4
0152 2 5
0152 5 6
0152 4 7
0152 1 8
0152 2 9
0152 6 10
0152 7 11
0152 5 12
0152 8 13
0153 11 1
0153 2 2
0153 3 3
0153 4 4
0153 5 5
0153 6 6
0153 19 7
0153 5 8
0153 9 9
0153 11 10
0153 17 11
0153 18 12
0153 19 13
0153 13 14
0153 15 15
0153 14 16
0153 1 17
0154 6 1
0154 3 2
0154 3 3
0154 4 4
0154 4 5
0154 4 6
0154 4 7
0154 4 8
0154 1 9
0154 12 10
0154 9 11
0154 10 12
0154 1 13
0154 12 14
0154 13 15
0154 1 16
0154 16 17
0154 16 18
0155 12 1
0155 2 2
0155 3 3
0155 7 4
0155 3 5
0155 4 6
0155 12 7
0155 13 8
0155 17 9
0155 7 10
0155 18 11
0155 18 12
0155 18 13
0155 9 14
0155 5 15
0155 15 16
0155 11 17
0155 15 18
0155 15 19
0155 13 20
0155 15 21
0155 6 22
0155 7 23
0155 12 24
0155 18 25
0155 19 26
0155 1 27
0156 1 1
0156 2 2
0156 2 3
0156 3 4
0156 4 5
0156 5 6
0156 5 7
0156 5 8
0156 6 9
0157 4 1
0157 5 2
0157 17 3
0157 7 4
0157 7 5
0157 6 6
0157 17 7
0157 9 8
0157 12 9
0157 8 10
0157 5 11
0157 17 12
0157 12 13
0157 9 14
0157 17 15
0157 15 16
0157 17 17
0157 15 18
0157 17 19
0157 15 20
0157 9 21
0157 17 22
0157 8 23
0158 1 1
0158 1 2
0158 3 3
0158 4 4
0158 3 5
0158 5 6
0158 6 7
0158 7 8
0158 7 9
0159 1 1
0159 2 2
0159 6 3
0159 4 4
0159 6 5
0159 7 6
0159 8 7
0159 8 8
0159 9 9
0159 7 10
0159 12 11
0159 12 12
0159 1 13
0160 1 1
0160 1 2
0160 3 3
0160 3 4
0161 1 1
0161 3 2
0161 4 3
0161 4 4
0161 4 5
0161 6 6
0161 8 7
0161 6 8
0161 7 9
0161 8 10
0161 9 11
0161 10 12
0161 11 13
0161 12 14
0161 13 15
0161 1 16
0162 4 1
0162 5 2
0162 5 3
0162 9 4
0162 1 5
0162 2 6
0162 7 7
0162 8 8
0162 10 9
0162 10 10
0162 10 11
0162 11 12
0162 11 13
0162 9 14
0162 21 15
0162 16 16
0162 16 17
0162 17 18
0162 19 19
0162 9 20
0162 19 21
0162 13 22
0162 21 23
0162 1 24
0163 1 1
0163 3 2
0163 3 3
0163 7 4
0163 4 5
0163 12 6
0163 11 7
0163 7 8
0163 12 9
0163 5 10
0163 12 11
0163 1 12
0164 19 1
0164 6 2
0164 2 3
0164 6 4
0164 4 5
0164 16 6
0164 9 7
0164 12 8
0164 9 9
0164 9 10
0164 10 11
0164 13 12
0164 13 13
0164 7 14
0164 15 15
0164 15 16
0164 16 17
0164 17 18
0164 4 19
0164 17 20
0164 18 21
0164 19 22
0164 20 23
0164 1 24
0164 23 25
0164 1 26
0164 22 27
0164 23 28
0164 1 29
0165 1 1
0165 2 2
0165 3 3
0165 4 4
0165 8 5
0165 8 6
0165 7 7
0165 8 8
0165 10 9
0165 9 10
0165 14 11
0165 15 12
0165 16 13
0165 17 14
0165 18 15
0165 18 16
0165 20 17
0165 1 18
0166 1 1
0166 2 2
0166 6 3
0166 3 4
0166 7 5
0166 7 6
0166 7 7
0166 5 8
0166 6 9
0166 7 10
0166 7 11
0166 12 12
0166 13 13
0166 11 14
0166 12 15
0166 11 16
0166 13 17
0166 11 18
0166 13 19
0166 19 20
0166 18 21
0166 20 22
0166 1 23
0166 2 24
0166 1 25
0166 24 26
0166 1 27
0167 1 1
0167 1 2
0167 1 3
0167 3 4
0167 3 5
0167 3 6
0167 3 7
0167 3 8
0168 4 1
0168 15 2
0168 19 3
0168 1 4
0168 5 5
0168 15 6
0168 2 7
0168 14 8
0168 15 9
0168 8 10
0168 9 11
0168 10 12
0168 2 13
0168 9 14
0168 11 15
0168 15 16
0168 12 17
0168 20 18
0168 15 19
0168 18 20
0168 20 21
0168 2 22
0168 9 23
0168 26 24
0168 23 25
0168 14 26
0168 25 27
0168 26 28
0168 1 29
0169 3 1
0169 12 2
0169 4 3
0169 5 4
0169 3 5
0169 6 6
0169 7 7
0169 13 8
0169 4 9
0169 10 10
0169 3 11
0169 10 12
0169 3 13
0169 12 14
0169 3 15
0169 12 16
0169 13 17
0169 3 18
0169 15 19
0169 15 20
0169 3 21
0169 15 22
0169 16 23
0169 17 24
0169 17 25
0169 10 26
0169 12 27
0169 1 28
0170 1 1
0170 2 2
0170 3 3
0170 4 4
0170 5 5
0170 5 6
0170 7 7
0170 1 8
0171 2 1
0171 15 2
0171 17 3
0171 16 4
0171 2 5
0171 3 6
0171 4 7
0171 4 8
0171 5 9
0171 9 10
0171 5 11
0171 17 12
0171 7 13
0171 11 14
0171 11 15
0171 10 16
0171 1 17
0171 11 18
0171 14 19
0171 7 20
0171 13 21
0171 17 22
0171 14 23
0172 10 1
0172 4 2
0172 10 3
0172 4 4
0172 4 5
0172 16 6
0172 14 7
0172 22 8
0172 3 9
0172 8 10
0172 4 11
0172 12 12
0172 6 13
0172 7 14
0172 12 15
0172 8 16
0172 21 17
0172 4 18
0172 21 19
0172 23 20
0172 18 21
0172 20 22
0172 2 23
0172 18 24
0172 19 25
0172 20 26
0173 1 1
0173 2 2
0173 5 3
0173 6 4
0173 7 5
0173 9 6
0173 8 7
0173 7 8
0173 11 9
0173 12 10
0173 9 11
0173 12 12
0174 1 1
0174 2 2
0174 2 3
0174 5 4
0174 4 5
0174 6 6
0174 6 7
0174 5 8
0174 8 9
0174 9 10
0174 18 11
0174 11 12
0174 11 13
0174 12 14
0174 14 15
0174 13 16
0174 15 17
0174 18 18
0174 16 19
0174 17 20
0174 19 21
0174 3 22
0174 18 23
0174 3 24
0175 1 1
0175 3 2
0175 3 3
0175 3 4
0175 4 5
0175 5 6
0175 6 7
0175 6 8
0176 1 1
0176 2 2
0176 19 3
0176 11 4
0176 6 5
0176 11 6
0176 19 7
0176 5 8
0176 6 9
0176 7 10
0176 11 11
0176 8 12
0176 11 13
0176 12 14
0176 12 15
0176 10 16
0176 11 17
0176 14 18
0176 11 19
0176 16 20
0176 14 21
0176 6 22
0176 16 23
0176 17 24
0176 5 25
0176 20 26
0176 11 27
0176 13 28
0177 1 1
0177 2 2
0177 3 3
0177 4 4
0177 6 5
0177 5 6
0177 8 7
0177 9 8
0177 5 9
0177 10 10
0177 1 11
0178 1 1
0178 2 2
0178 2 3
0178 4 4
0178 4 5
0178 7 6
0178 7 7
0178 6 8
0178 8 9
0178 7 10
0178 9 11
0178 10 12
0178 11 13
0178 12 14
0178 13 15
0178 13 16
0178 11 17
0179 1 1
0179 4 2
0179 6 3
0179 7 4
0179 8 5
0179 1 6
0180 1 1
0180 2 2
0180 6 3
0180 4 4
0180 5 5
0180 6 6
0180 5 7
0180 1 8
0181 1 1
0181 1 2
0181 3 3
0181 3 4
0181 5 5
0181 7 6
0181 8 7
0181 11 8
0181 6 9
0181 9 10
0181 10 11
0181 11 12
0181 10 13
0181 6 14
0182 1 1
0182 2 2
0182 3 3
0182 6 4
0182 4 5
0182 5 6
0182 5 7
0182 5 8
0182 9 9
0182 5 10
0182 12 11
0182 2 12
0182 11 13
0182 9 14
0182 14 15
0182 14 16
0182 15 17
0182 16 18
0182 16 19
0182 1 20
0183 1 1
0183 2 2
0183 4 3
0183 4 4
0183 4 5
0183 1 6
0184 1 1
0184 3 2
0184 4 3
0184 7 4
0184 2 5
0184 8 6
0185 1 1
0185 2 2
0185 2 3
0185 4 4
0185 4 5
0185 8 6
0185 7 7
0185 8 8
0185 1 9
0186 5 1
0186 2 2
0186 4 3
0186 3 4
0186 3 5
0186 10 6
0186 6 7
0186 6 8
0186 7 9
0186 7 10
0186 8 11
0186 9 12
0186 10 13
0186 11 14
0186 1 15
0187 1 1
0187 4 2
0187 3 3
0187 4 4
0187 4 5
0187 6 6
0187 10 7
0187 7 8
0187 10 9
0187 10 10
0187 13 11
0187 15 12
0187 10 13
0187 12 14
0187 6 15
0187 7 16
0187 10 17
0187 1 18
0188 1 1
0188 5 2
0188 7 3
0188 3 4
0188 5 5
0188 6 6
0188 7 7
0188 5 8
0188 5 9
0188 1 10
0188 2 11
0188 5 12
0188 5 13
0188 5 14
0188 5 15
0188 5 16
0188 1 17
0189 1 1
0189 2 2
0189 2 3
0189 4 4
0189 4 5
0189 6 6
0189 4 7
0189 6 8
0189 4 9
0189 10 10
0189 4 11
0189 10 12
0189 11 13
0189 13 14
0189 17 15
0189 14 16
0189 16 17
0189 17 18
0189 17 19
0189 1 20
0190 1 1
0190 1 2
0190 1 3
0190 1 4
0190 3 5
0190 2 6
0190 6 7
0190 5 8
0190 7 9
0190 7 10
0190 8 11
0190 10 12
0190 10 13
0190 14 14
0190 12 15
0190 10 16
0190 11 17
0190 12 18
0190 13 19
0190 1 20
0191 1 1
0191 2 2
0191 3 3
0191 4 4
0191 2 5
0192 2 1
0192 2 2
0192 2 3
0192 3 4
0192 4 5
0192 5 6
0192 5 7
0192 7 8
0192 8 9
0192 9 10
0192 9 11
0192 1 12
0193 1 1
0193 2 2
0193 4 3
0193 3 4
0193 5 5
0193 6 6
0193 6 7
0193 8 8
0193 16 9
0193 9 10
0193 10 11
0193 12 12
0193 12 13
0193 13 14
0193 15 15
0193 16 16
0193 10 17
0193 11 18
0193 14 19
0193 6 20
0193 16 21
0193 17 22
0193 19 23
0193 18 24
0193 19 25
0193 20 26
0193 21 27
0193 21 28
0193 1 29
0194 7 1
0194 2 2
0194 3 3
0194 4 4
0194 5 5
0194 6 6
0194 7 7
0194 8 8
0194 9 9
0194 11 10
0194 11 11
0194 1 12
0195 4 1
0195 7 2
0195 5 3
0195 6 4
0195 2 5
0195 12 6
0195 7 7
0195 8 8
0195 10 9
0195 13 10
0195 13 11
0195 7 12
0195 13 13
0195 15 14
0195 16 15
0195 17 16
0195 15 17
0196 1 1
0196 5 2
0196 5 3
0196 3 4
0196 5 5
0196 8 6
0196 5 7
0196 7 8
0196 1 9
0196 16 10
0196 15 11
0196 14 12
0196 11 13
0196 14 14
0196 1 15
0196 13 16
0196 19 17
0196 19 18
0196 19 19
0196 1 20
0197 1 1
0197 3 2
0197 3 3
0197 12 4
0197 2 5
0197 7 6
0197 7 7
0197 7 8
0197 7 9
0197 8 10
0197 2 11
0197 12 12
0197 11 13
0197 12 14
0197 13 15
0197 13 16
0197 8 17
0197 2 18
0197 18 19
0197 17 20
0197 18 21
0197 8 22
0197 20 23
0197 21 24
0198 1 1
0198 2 2
0198 3 3
0198 5 4
0198 4 5
0198 4 6
0198 5 7
0198 6 8
0198 12 9
0198 6 10
0198 9 11
0198 8 12
0198 11 13
0198 10 14
0198 13 15
0198 14 16
0198 14 17
0199 3 1
0199 2 2
0199 3 3
0199 1 4
0199 2 5
0199 2 6
0200 1 1
0200 5 2
0200 1 3
0200 3 4
0200 7 5
0200 8 6
0200 9 7
0200 11 8
0200 11 9
0200 9 10
0200 3 11
0200 10 12
0200 3 13
0200 1 14
0201 8 1
0201 4 2
0201 1 3
0201 4 4
0201 6 5
0201 3 6
0201 5 7
0201 6 8
0201 1 9
0202 1 1
0202 3 2
0202 4 3
0202 5 4
0202 3 5
0202 9 6
0202 6 7
0202 9 8
0202 18 9
0202 10 10
0202 18 11
0202 10 12
0202 18 13
0202 20 14
0202 3 15
0202 19 16
0202 18 17
0202 17 18
0202 18 19
0202 20 20
0202 3 21
0202 23 22
0202 22 23
0202 10 24
0203 3 1
0203 4 2
0203 7 3
0203 11 4
0203 16 5
0203 10 6
0203 9 7
0203 16 8
0203 1 9
0204 1 1
0204 2 2
0204 3 3
0204 5 4
0204 6 5
0204 3 6
0204 7 7
0204 8 8
0204 7 9
0204 8 10
0204 9 11
0204 10 12
0204 13 13
0204 13 14
0204 10 15
0204 12 16
0204 13 17
0204 1 18
0205 4 1
0205 6 2
0205 1 3
0205 8 4
0205 9 5
0205 5 6
0205 8 7
0205 12 8
0205 5 9
0205 8 10
0205 9 11
0205 4 12
0205 2 13
0205 1 14
0206 1 1
0206 2 2
0206 2 3
0206 4 4
0206 4 5
0206 5 6
0206 10 7
0206 10 8
0206 10 9
0207 1 1
0207 2 2
0207 3 3
0207 3 4
0207 3 5
0207 1 6
0207 5 7
0207 6 8
0208 1 1
0208 2 2
0208 10 3
0208 3 4
0208 2 5
0208 5 6
0208 10 7
0208 10 8
0208 10 9
0208 10 10
0208 10 11
0208 10 12
0208 12 13
0208 12 14
0208 10 15
0208 19 16
0208 12 17
0208 17 18
0208 10 19
0208 15 20
0208 4 21
0208 13 22
0208 16 23
0208 1 24
0209 1 1
0209 2 2
0209 4 3
0209 4 4
0209 4 5
0209 7 6
0209 4 7
0209 6 8
0209 6 9
0209 9 10
0209 8 11
0209 7 12
0209 9 13
0209 9 14
0209 1 15
0210 1 1
0210 2 2
0210 2 3
0210 9 4
0210 3 5
0210 9 6
0210 5 7
0210 9 8
0210 1 9
0211 3 1
0211 4 2
0211 5 3
0211 3 4
0211 9 5
0211 5 6
0211 11 7
0211 3 8
0211 10 9
0211 11 10
0211 11 11
0211 1 12
0212 1 1
0212 5 2
0212 3 3
0212 3 4
0212 6 5
0212 5 6
0212 7 7
0212 8 8
0212 9 9
0212 11 10
0212 12 11
0212 1 12
0213 1 1
0213 1 2
0213 1 3
0214 1 1
0214 4 2
0214 2 3
0214 3 4
0214 4 5
0214 6 6
0214 5 7
0214 8 8
0214 4 9
0214 7 10
0214 4 11
0214 3 12
0214 10 13
0214 1 14
0215 3 1
0215 1 2
0215 5 3
0215 14 4
0215 6 5
0215 14 6
0215 8 7
0215 8 8
0215 9 9
0215 10 10
0215 12 11
0215 13 12
0215 15 13
0215 14 14
0215 14 15
0215 16 16
0215 16 17
0215 19 18
0215 17 19
0215 18 20
0215 14 21
0215 20 22
0215 21 23
0215 22 24
0215 5 25
0216 4 1
0216 7 2
0216 6 3
0216 7 4
0216 14 5
0216 13 6
0216 9 7
0216 6 8
0216 12 9
0216 17 10
0216 16 11
0216 12 12
0216 16 13
0216 17 14
0216 3 15
0217 1 1
0217 2 2
0217 3 3
0217 4 4
0217 5 5
0217 4 6
0217 6 7
0217 9 8
0217 9 9
0217 9 10
0217 11 11
0217 11 12
0217 9 13
0217 21 14
0217 1 15
0217 9 16
0217 14 17
0217 13 18
0217 6 19
0217 21 20
0217 1 21
0217 20 22
0217 21 23
0217 4 24
0217 24 25
0217 25 26
0217 1 27
0218 1 1
0218 2 2
0218 4 3
0218 3 4
0219 1 1
0219 5 2
0219 14 3
0219 9 4
0219 2 5
0219 3 6
0219 3 7
0219 4 8
0219 5 9
0219 6 10
0219 7 11
0219 12 12
0219 8 13
0219 9 14
0219 10 15
0219 11 16
0219 12 17
0219 13 18
0219 14 19
0220 1 1
0220 2 2
0220 2 3
0220 4 4
0220 4 5
0220 5 6
0220 3 7
0220 19 8
0220 5 9
0220 9 10
0220 11 11
0220 8 12
0220 19 13
0220 14 14
0220 15 15
0220 16 16
0220 15 17
0220 18 18
0220 19 19
0220 1 20
0221 1 1
0221 2 2
0221 2 3
0221 3 4
0221 4 5
0221 5 6
0221 6 7
0221 7 8
0221 7 9
0221 7 10
0221 1 11
0221 7 12
0221 8 13
0221 9 14
0221 9 15
0221 10 16
0221 11 17
0221 12 18
0221 12 19
0221 12 20
0221 1 21
0222 1 1
0222 6 2
0222 7 3
0222 7 4
0222 14 5
0222 7 6
0222 7 7
0222 7 8
0222 8 9
0222 12 10
0222 16 11
0222 1 12
0222 18 13
0222 8 14
0222 23 15
0222 20 16
0222 8 17
0222 17 18
0222 14 19
0222 20 20
0222 20 21
0222 18 22
0222 20 23
0222 20 24
0222 16 25
0222 3 26
0222 8 27
0222 25 28
0222 20 29
0222 1 30
0223 4 1
0223 2 2
0223 1 3
0223 1 4
0223 2 5
0223 4 6
0223 4 7
0223 4 8
0223 1 9
0224 1 1
0224 2 2
0224 2 3
0224 3 4
0224 5 5
0224 21 6
0224 12 7
0224 12 8
0224 12 9
0224 5 10
0224 6 11
0224 8 12
0224 12 13
0224 11 14
0224 10 15
0224 16 16
0224 12 17
0224 16 18
0224 12 19
0224 12 20
0224 16 21
0224 18 22
0224 7 23
0224 12 24
0224 17 25
0224 1 26
0225 1 1
0225 3 2
0225 2 3
0225 4 4
0225 10 5
0225 5 6
0225 10 7
0225 1 8
0225 10 9
0225 10 10
0225 1 11
0226 1 1
0226 2 2
0226 3 3
0226 4 4
0226 13 5
0226 6 6
0226 5 7
0226 9 8
0226 2 9
0226 9 10
0226 10 11
0226 13 12
0226 11 13
0226 14 14
0226 16 15
0226 14 16
0226 5 17
0226 16 18
0226 17 19
0226 13 20
0226 19 21
0227 3 1
0227 19 2
0227 19 3
0227 1 4
0227 8 5
0227 9 6
0227 7 7
0227 8 8
0227 19 9
0227 10 10
0227 10 11
0227 11 12
0227 13 13
0227 12 14
0227 14 15
0227 15 16
0227 15 17
0227 16 18
0227 14 19
0227 17 20
0227 19 21
0227 19 22
0227 18 23
0227 19 24
0227 19 25
0227 22 26
0227 19 27
0227 15 28
0227 24 29
0227 1 30
0228 1 1
0228 3 2
0228 4 3
0228 2 4
0228 4 5
0228 5 6
0228 5 7
0228 6 8
0228 15 9
0228 4 10
0228 7 11
0228 7 12
0228 8 13
0228 13 14
0228 4 15
0228 13 16
0228 14 17
0228 14 18
0228 17 19
0228 15 20
0228 4 21
0228 1 22
0229 8 1
0229 2 2
0229 2 3
0229 17 4
0229 2 5
0229 2 6
0229 4 7
0229 1 8
0229 5 9
0229 8 10
0229 16 11
0229 2 12
0229 7 13
0229 1 14
0229 13 15
0229 15 16
0229 2 17
0229 14 18
0229 1 19
0229 2 20
0229 7 21
0229 13 22
0229 13 23
0229 7 24
0229 19 25
0229 19 26
0229 1 27
0230 1 1
0230 4 2
0230 4 3
0230 19 4
0230 8 5
0230 3 6
0230 7 7
0230 10 8
0230 11 9
0230 7 10
0230 13 11
0230 14 12
0230 15 13
0230 16 14
0230 13 15
0230 16 16
0230 15 17
0230 16 18
0230 19 19
0230 22 20
0230 22 21
0230 22 22
0230 22 23
0230 7 24
0231 1 1
0231 3 2
0231 3 3
0231 4 4
0231 5 5
0231 6 6
0231 3 7
0231 8 8
0231 7 9
0231 8 10
0231 9 11
0231 11 12
0231 7 13
0231 13 14
0231 15 15
0231 19 16
0231 12 17
0231 19 18
0231 14 19
0231 18 20
0231 17 21
0231 18 22
0231 20 23
0231 19 24
0231 19 25
0231 19 26
0231 18 27
0231 26 28
0231 25 29
0231 27 30
0232 1 1
0232 3 2
0232 3 3
0232 3 4
0232 2 5
0232 4 6
0232 5 7
0232 5 8
0232 9 9
0232 5 10
0232 7 11
0232 1 12
0232 8 13
0232 9 14
0232 11 15
0232 11 16
0232 5 17
0232 1 18
0232 10 19
0232 1 20
0233 2 1
0233 2 2
0233 2 3
0233 16 4
0233 25 5
0233 6 6
0233 7 7
0233 8 8
0233 9 9
0233 10 10
0233 11 11
0233 3 12
0233 14 13
0233 5 14
0233 15 15
0233 22 16
0233 16 17
0233 20 18
0233 20 19
0233 1 20
0233 24 21
0233 25 22
0233 27 23
0233 27 24
0233 1 25
0233 26 26
0233 21 27
0233 20 28
0233 1 29
0234 6 1
0234 2 2
0234 3 3
0234 1 4
0234 3 5
0234 4 6
0234 5 7
0234 6 8
0234 8 9
0234 11 10
0234 9 11
0234 10 12
0234 12 13
0234 11 14
0234 13 15
0234 15 16
0234 17 17
0234 11 18
0234 16 19
0234 17 20
0234 17 21
0234 11 22
0235 1 1
0235 2 2
0235 25 3
0235 25 4
0235 25 5
0235 6 6
0235 8 7
0235 6 8
0235 9 9
0235 7 10
0235 12 11
0235 12 12
0235 4 13
0235 25 14
0235 15 15
0235 7 16
0235 2 17
0235 25 18
0235 20 19
0235 21 20
0235 19 21
0235 25 22
0235 23 23
0235 25 24
0235 21 25
0235 25 26
0235 23 27
0235 7 28
0235 25 29
0235 1 30
0236 2 1
0236 2 2
0236 1 3
0236 13 4
0236 5 5
0236 6 6
0236 4 7
0236 8 8
0236 9 9
0236 10 10
0236 13 11
0236 13 12
0236 14 13
0236 15 14
0236 15 15
0236 17 16
0236 18 17
0236 18 18
0236 19 19
0236 21 20
0236 20 21
0236 1 22
0237 7 1
0237 3 2
0237 3 3
0237 4 4
0237 5 5
0237 5 6
0237 7 7
0237 8 8
0237 9 9
0237 13 10
0237 7 11
0237 13 12
0237 12 13
0237 12 14
0237 14 15
0237 15 16
0237 16 17
0237 17 18
0237 18 19
0237 18 20
0237 18 21
0237 19 22
0237 20 23
0237 21 24
0237 1 25
0238 1 1
0238 2 2
0238 2 3
0238 4 4
0238 6 5
0238 4 6
0238 5 7
0238 5 8
0238 5 9
0238 6 10
0238 2 11
0238 11 12
0238 7 13
0238 6 14
0238 7 15
0238 1 16
0238 9 17
0238 1 18
0238 9 19
0238 7 20
0238 4 21
0238 2 22
0238 1 23
0239 16 1
0239 4 2
0239 2 3
0239 5 4
0239 4 5
0239 9 6
0239 9 7
0239 8 8
0239 12 9
0239 12 10
0239 13 11
0239 16 12
0239 16 13
0239 1 14
0240 27 1
0240 11 2
0240 11 3
0240 1 4
0240 3 5
0240 4 6
0240 10 7
0240 6 8
0240 7 9
0240 25 10
0240 15 11
0240 21 12
0240 17 13
0240 15 14
0240 24 15
0240 23 16
0240 25 17
0240 5 18
0240 15 19
0240 26 20
0240 27 21
0240 16 22
0240 1 23
0241 1 1
0241 2 2
0241 4 3
0241 4 4
0241 5 5
0241 7 6
0241 8 7
0241 8 8
0241 9 9
0241 10 10
0241 11 11
0241 12 12
0241 10 13
0241 13 14
0241 16 15
0241 10 16
0241 16 17
0241 1 18
0242 1 1
0242 2 2
0242 3 3
0242 4 4
0242 4 5
0242 15 6
0242 7 7
0242 8 8
0242 10 9
0242 15 10
0242 12 11
0242 16 12
0242 13 13
0242 14 14
0242 15 15
0242 1 16
0243 1 1
0243 15 2
0243 6 3
0243 3 4
0243 8 5
0243 5 6
0243 15 7
0243 15 8
0243 9 9
0243 8 10
0243 11 11
0243 15 12
0243 5 13
0243 14 14
0243 15 15
0243 1 16
0244 1 1
0244 2 2
0244 5 3
0244 3 4
0244 4 5
0244 6 6
0244 7 7
0244 1 8
0245 1 1
0245 2 2
0245 23 3
0245 16 4
0245 8 5
0245 16 6
0245 15 7
0245 6 8
0245 16 9
0245 23 10
0245 14 11
0245 14 12
0245 16 13
0245 22 14
0245 7 15
0245 16 16
0245 16 17
0245 18 18
0245 8 19
0245 23 20
0245 23 21
0245 10 22
0246 1 1
0246 1 2
0246 2 3
0246 3 4
0246 3 5
0246 4 6
0246 5 7
0246 6 8
0246 7 9
0246 7 10
0246 6 11
0246 11 12
0246 11 13
0246 10 14
0246 14 15
0246 15 16
0246 1 17
0247 1 1
0247 6 2
0247 2 3
0247 3 4
0247 6 5
0247 6 6
0247 5 7
0247 6 8
0247 4 9
0247 4 10
0247 5 11
0247 4 12
0247 6 13
0247 6 14
0247 3 15
0248 9 1
0248 9 2
0248 4 3
0248 9 4
0248 4 5
0248 9 6
0248 9 7
0248 5 8
0248 9 9
0248 9 10
0248 9 11
0248 9 12
0248 1 13
0249 1 1
0249 2 2
0249 2 3
0249 19 4
0249 5 5
0249 6 6
0249 18 7
0249 6 8
0249 19 9
0249 9 10
0249 10 11
0249 12 12
0249 12 13
0249 11 14
0249 14 15
0249 18 16
0249 17 17
0249 12 18
0249 15 19
0249 18 20
0249 15 21
0249 16 22
0249 16 23
0249 19 24
0249 19 25
0249 18 26
0249 22 27
0249 22 28
0249 1 29
0250 1 1
0250 2 2
0250 4 3
0250 3 4
0250 4 5
0250 4 6
0250 6 7
0250 7 8
0250 8 9
0250 9 10
0250 7 11
0250 11 12
0250 12 13
0250 15 14
0250 13 15
0250 13 16
0250 14 17
0250 20 18
0250 3 19
0250 7 20
0250 19 21
0250 3 22
0250 19 23
0250 11 24
0251 1 1
0251 4 2
0251 4 3
0251 4 4
0251 4 5
0251 4 6
0251 3 7
0252 1 1
0252 2 2
0252 3 3
0252 1 4
0252 3 5
0252 1 6
0252 7 7
0252 8 8
0252 1 9
0252 7 10
0252 3 11
0252 9 12
0252 6 13
0252 1 14
0252 6 15
0252 1 16
0253 11 1
0253 9 2
0253 6 3
0253 11 4
0253 7 5
0253 12 6
0253 7 7
0253 7 8
0253 6 9
0253 5 10
0253 5 11
0253 1 12
0254 1 1
0254 2 2
0254 3 3
0254 5 4
0254 6 5
0254 2 6
0254 6 7
0254 6 8
0254 15 9
0254 7 10
0254 21 11
0254 13 12
0254 20 13
0254 14 14
0254 7 15
0254 24 16
0254 16 17
0254 12 18
0254 13 19
0254 6 20
0254 23 21
0254 21 22
0254 23 23
0254 21 24
0254 24 25
0254 1 26
0255 1 1
0255 15 2
0255 3 3
0255 21 4
0255 6 5
0255 19 6
0255 4 7
0255 1 8
0255 6 9
0255 5 10
0255 7 11
0255 13 12
0255 8 13
0255 9 14
0255 16 15
0255 5 16
0255 3 17
0255 18 18
0255 24 19
0255 12 20
0255 17 21
0255 23 22
0255 15 23
0255 1 24
0256 1 1
0256 7 2
0256 7 3
0256 2 4
0256 5 5
0256 6 6
0256 7 7
0256 3 8
0256 2 9
0256 7 10
0256 7 11
0256 7 12
0256 1 13
0257 4 1
0257 4 2
0257 1 3
0257 3 4
0257 2 5
0257 2 6
0257 1 7
0258 1 1
0258 2 2
0258 3 3
0258 4 4
0258 5 5
0258 5 6
0258 6 7
0258 7 8
0258 8 9
0258 9 10
0258 10 11
0258 12 12
0258 12 13
0258 13 14
0258 14 15
0258 14 16
0258 17 17
0258 16 18
0258 22 19
0258 19 20
0258 22 21
0258 25 22
0258 26 23
0258 10 24
0258 26 25
0258 27 26
0259 4 1
0259 5 2
0259 18 3
0259 6 4
0259 9 5
0259 6 6
0259 6 7
0259 16 8
0259 8 9
0259 9 10
0259 11 11
0259 11 12
0259 12 13
0259 15 14
0259 14 15
0259 14 16
0259 16 17
0259 16 18
0259 16 19
0259 17 20
0259 19 21
0259 19 22
0259 1 23
0260 1 1
0260 8 2
0260 4 3
0260 3 4
0260 7 5
0260 15 6
0260 15 7
0260 9 8
0260 5 9
0260 15 10
0260 11 11
0260 15 12
0260 13 13
0260 7 14
0260 15 15
0260 18 16
0260 20 17
0260 7 18
0260 22 19
0260 21 20
0260 24 21
0260 1 22
0261 1 1
0261 2 2
0261 3 3
0261 4 4
0261 4 5
0261 5 6
0261 6 7
0261 7 8
0261 8 9
0261 9 10
0261 4 11
0262 5 1
0262 2 2
0262 2 3
0262 5 4
0262 1 5
0263 8 1
0263 11 2
0263 9 3
0263 10 4
0263 1 5
0263 2 6
0263 2 7
0263 6 8
0263 9 9
0263 4 10
0263 5 11
0263 7 12
0263 6 13
0263 5 14
0263 10 15
0263 9 16
0263 5 17
0263 5 18
0263 9 19
0263 8 20
0263 11 21
0263 12 22
0263 10 23
0263 12 24
0263 1 25
0264 3 1
0264 4 2
0264 3 3
0264 4 4
0264 13 5
0264 4 6
0264 5 7
0264 7 8
0264 7 9
0264 8 10
0264 9 11
0264 9 12
0264 10 13
0264 11 14
0264 13 15
0264 13 16
0264 15 17
0265 7 1
0265 8 2
0265 8 3
0265 9 4
0265 6 5
0265 7 6
0265 11 7
0265 8 8
0265 18 9
0265 18 10
0265 12 11
0265 13 12
0265 14 13
0265 16 14
0265 18 15
0265 18 16
0265 15 17
0265 18 18
0265 3 19
0265 21 20
0265 1 21
0266 1 1
0266 2 2
0266 3 3
0266 10 4
0266 4 5
0266 10 6
0266 12 7
0266 13 8
0266 8 9
0266 16 10
0266 10 11
0266 8 12
0266 15 13
0266 15 14
0266 5 15
0266 15 16
0266 15 17
0266 16 18
0266 15 19
0266 15 20
0266 18 21
0266 14 22
0266 15 23
0266 1 24
0267 3 1
0267 3 2
0267 18 3
0267 3 4
0267 1 5
0267 5 6
0267 6 7
0267 6 8
0267 8 9
0267 10 10
0267 8 11
0267 9 12
0267 18 13
0267 10 14
0267 14 15
0267 19 16
0267 13 17
0267 13 18
0267 14 19
0267 8 20
0267 19 21
0267 16 22
0267 19 23
0267 18 24
0267 19 25
0267 1 26
0268 3 1
0268 3 2
0268 1 3
0268 4 4
0268 5 5
0268 6 6
0268 7 7
0268 8 8
0268 8 9
0268 9 10
0268 8 11
0268 19 12
0268 10 13
0268 1 14
0268 12 15
0268 16 16
0268 16 17
0268 16 18
0268 16 19
0268 16 20
0268 7 21
0268 18 22
0268 21 23
0268 1 24
0268 21 25
0268 19 26
0268 21 27
0269 1 1
0269 2 2
0269 3 3
0269 4 4
0269 5 5
0269 6 6
0269 7 7
0269 19 8
0269 9 9
0269 12 10
0269 12 11
0269 11 12
0269 13 13
0269 19 14
0269 9 15
0269 16 16
0269 17 17
0269 2 18
0269 19 19
0269 1 20
0270 1 1
0270 4 2
0270 7 3
0270 4 4
0270 3 5
0270 3 6
0270 4 7
0270 5 8
0270 6 9
0270 10 10
0270 9 11
0270 10 12
0270 13 13
0270 15 14
0270 14 15
0270 16 16
0270 15 17
0270 1 18
0271 1 1
0271 2 2
0271 2 3
0271 9 4
0271 3 5
0271 7 6
0271 9 7
0271 9 8
0271 5 9
0271 9 10
0271 1 11
0272 1 1
0272 1 2
0272 2 3
0272 5 4
0272 5 5
0272 7 6
0272 8 7
0272 9 8
0272 10 9
0272 11 10
0272 20 11
0272 21 12
0272 14 13
0272 4 14
0272 20 15
0272 16 16
0272 9 17
0272 20 18
0272 4 19
0272 7 20
0272 22 21
0272 4 22
0272 20 23
0272 21 24
0272 21 25
0272 23 26
0273 1 1
0273 1 2
0273 2 3
0273 3 4
0273 3 5
0273 5 6
0273 6 7
0273 5 8
0273 8 9
0273 9 10
0273 10 11
0273 1 12
0274 3 1
0274 5 2
0274 4 3
0274 5 4
0274 6 5
0274 1 6
0274 7 7
0274 8 8
0274 9 9
0274 10 10
0274 15 11
0274 14 12
0274 10 13
0274 11 14
0274 12 15
0274 10 16
0274 13 17
0274 15 18
0274 17 19
0274 16 20
0274 18 21
0274 19 22
0274 21 23
0274 17 24
0274 20 25
0274 19 26
0274 11 27
0274 21 28
0274 22 29
0274 1 30
0275 1 1
0275 2 2
0275 3 3
0275 4 4
0275 5 5
0275 21 6
0275 23 7
0275 27 8
0275 23 9
0275 11 10
0275 2 11
0275 6 12
0275 23 13
0275 21 14
0275 19 15
0275 20 16
0275 21 17
0275 6 18
0275 17 19
0275 28 20
0275 26 21
0275 1 22
0276 1 1
0276 18 2
0276 3 3
0276 1 4
0276 5 5
0276 6 6
0276 7 7
0276 8 8
0276 10 9
0276 9 10
0276 11 11
0276 8 12
0276 10 13
0276 13 14
0276 13 15
0276 16 16
0276 13 17
0276 8 18
0276 18 19
0276 16 20
0276 8 21
0276 18 22
0276 1 23
0277 17 1
0277 1 2
0277 16 3
0277 3 4
0277 2 5
0277 10 6
0277 7 7
0277 13 8
0277 15 9
0277 16 10
0277 10 11
0277 5 12
0277 6 13
0277 8 14
0277 10 15
0277 8 16
0277 9 17
0277 15 18
0277 17 19
0277 10 20
0277 3 21
0278 1 1
0278 3 2
0278 5 3
0278 9 4
0278 4 5
0278 4 6
0278 4 7
0278 6 8
0278 7 9
0278 8 10
0278 9 11
0278 10 12
0278 11 13
0278 12 14
0278 9 15
0278 14 16
0278 11 17
0278 12 18
0278 15 19
0278 2 20
0278 1 21
0278 18 22
0278 18 23
0278 18 24
0279 1 1
0279 2 2
0279 15 3
0279 2 4
0279 3 5
0279 4 6
0279 5 7
0279 6 8
0279 4 9
0279 5 10
0279 13 11
0279 13 12
0279 12 13
0279 13 14
0279 12 15
0279 11 16
0279 13 17
0279 17 18
0279 15 19
0279 16 20
0279 9 21
0279 16 22
0279 11 23
0279 11 24
0279 13 25
0279 21 26
0279 21 27
0279 22 28
0279 22 29
0280 6 1
0280 12 2
0280 8 3
0280 9 4
0280 11 5
0280 6 6
0280 6 7
0280 6 8
0280 3 9
0280 4 10
0280 11 11
0280 12 12
0280 1 13
0281 21 1
0281 5 2
0281 2 3
0281 3 4
0281 5 5
0281 4 6
0281 5 7
0281 9 8
0281 10 9
0281 11 10
0281 5 11
0281 13 12
0281 5 13
0281 5 14
0281 18 15
0281 19 16
0281 18 17
0281 19 18
0281 20 19
0281 5 20
0281 20 21
0281 26 22
0281 5 23
0281 5 24
0281 1 25
0282 1 1
0282 3 2
0282 2 3
0282 3 4
0282 5 5
0282 5 6
0283 1 1
0283 2 2
0283 16 3
0283 5 4
0283 7 5
0283 6 6
0283 6 7
0283 8 8
0283 3 9
0283 10 10
0283 11 11
0283 3 12
0283 14 13
0283 11 14
0283 13 15
0283 15 16
0283 16 17
0283 17 18
0283 18 19
0283 19 20
0283 16 21
0283 16 22
0283 18 23
0283 21 24
0283 22 25
0283 23 26
0283 1 27
0284 1 1
0284 2 2
0284 4 3
0284 4 4
0284 4 5
0284 4 6
0284 5 7
0284 5 8
0285 1 1
0285 2 2
0285 2 3
0285 4 4
0285 13 5
0285 13 6
0285 5 7
0285 16 8
0285 13 9
0285 9 10
0285 13 11
0285 11 12
0285 16 13
0285 13 14
0285 13 15
0285 13 16
0285 13 17
0285 13 18
0285 1 19
0286 1 1
0286 5 2
0286 3 3
0286 12 4
0286 18 5
0286 12 6
0286 11 7
0286 6 8
0286 12 9
0286 10 10
0286 9 11
0286 6 12
0286 16 13
0286 17 14
0286 1 15
0287 1 1
0287 13 2
0287 6 3
0287 7 4
0287 24 5
0287 8 6
0287 16 7
0287 11 8
0287 12 9
0287 24 10
0287 13 11
0287 15 12
0287 16 13
0287 5 14
0287 17 15
0287 13 16
0287 22 17
0287 24 18
0287 3 19
0287 26 20
0287 1 21
0288 1 1
0288 1 2
0288 7 3
0288 7 4
0288 2 5
0288 3 6
0288 4 7
0288 8 8
0288 12 9
0288 5 10
0288 6 11
0288 2 12
0288 8 13
0288 13 14
0288 2 15
0288 11 16
0288 10 17
0288 17 18
0289 18 1
0289 18 2
0289 3 3
0289 4 4
0289 5 5
0289 6 6
0289 18 7
0289 10 8
0289 10 9
0289 18 10
0289 18 11
0289 15 12
0289 9 13
0289 18 14
0289 14 15
0289 11 16
0289 12 17
0289 18 18
0289 18 19
0289 18 20
0289 18 21
0289 18 22
0289 1 23
0290 1 1
0290 7 2
0290 9 3
0290 4 4
0290 2 5
0290 7 6
0290 18 7
0290 7 8
0290 7 9
0290 24 10
0290 8 11
0290 5 12
0290 9 13
0290 7 14
0290 6 15
0290 13 16
0290 14 17
0290 20 18
0290 25 19
0290 20 20
0290 11 21
0290 9 22
0290 26 23
0290 24 24
0290 23 25
0290 1 26
0291 6 1
0291 7 2
0291 3 3
0291 4 4
0291 5 5
0291 2 6
0291 6 7
0291 4 8
0291 3 9
0291 7 10
0291 8 11
0291 7 12
0291 8 13
0291 14 14
0291 10 15
0291 4 16
0291 11 17
0291 11 18
0291 13 19
0291 8 20
0291 15 21
0291 4 22
0291 16 23
0291 1 24
0292 2 1
0292 3 2
0292 5 3
0292 7 4
0292 5 5
0292 4 6
0292 4 7
0292 7 8
0292 8 9
0292 8 10
0292 9 11
0292 10 12
0292 11 13
0292 8 14
0292 1 15
0293 1 1
0293 2 2
0293 4 3
0293 5 4
0293 6 5
0293 7 6
0293 8 7
0293 6 8
0293 10 9
0293 8 10
0293 11 11
0293 10 12
0293 13 13
0293 14 14
0293 15 15
0293 14 16
0293 15 17
0293 16 18
0293 15 19
0293 18 20
0293 19 21
0293 1 22
0294 6 1
0294 3 2
0294 2 3
0294 1 4
0294 4 5
0294 4 6
0294 5 7
0294 7 8
0294 6 9
0294 6 10
0294 2 11
0295 1 1
0295 4 2
0295 3 3
0295 4 4
0295 3 5
0295 4 6
0295 6 7
0295 5 8
0295 5 9
0295 4 10
0295 5 11
0295 7 12
0296 1 1
0296 9 2
0296 14 3
0296 10 4
0296 12 5
0296 6 6
0296 7 7
0296 9 8
0296 9 9
0296 14 10
0296 13 11
0296 9 12
0296 11 13
0296 14 14
0296 16 15
0296 13 16
0296 15 17
0296 1 18
0297 1 1
0297 2 2
0297 3 3
0297 3 4
0297 4 5
0297 5 6
0297 7 7
0297 8 8
0297 8 9
0297 9 10
0298 1 1
0298 2 2
0298 5 3
0298 9 4
0298 9 5
0298 6 6
0298 7 7
0298 9 8
0298 9 9
0298 1 10
0299 1 1
0299 2 2
0299 5 3
0299 7 4
0299 7 5
0299 9 6
0299 9 7
0299 6 8
0300 1 1
0300 2 2
0300 6 3
0300 2 4
0300 6 5
0300 3 6
0300 3 7
0300 6 8
0300 6 9
0300 1 10
0301 11 1
0301 2 2
0301 2 3
0301 2 4
0301 1 5
0301 4 6
0301 5 7
0301 4 8
0301 6 9
0301 10 10
0301 7 11
0301 12 12
0301 7 13
0301 5 14
0301 9 15
0301 9 16
0301 11 17
0301 13 18
0301 12 19
0301 11 20
0301 13 21
0301 13 22
0301 1 23
0302 1 1
0302 6 2
0302 7 3
0302 1 4
0302 3 5
0302 2 6
0302 7 7
0302 11 8
0302 4 9
0302 11 10
0302 8 11
0302 11 12
0302 8 13
0302 11 14
0302 1 15
0303 1 1
0303 6 2
0303 2 3
0303 2 4
0303 12 5
0303 12 6
0303 3 7
0303 11 8
0303 6 9
0303 6 10
0303 6 11
0303 14 12
0303 16 13
0303 7 14
0303 16 15
0303 8 16
0303 21 17
0303 1 18
0304 1 1
0304 2 2
0304 3 3
0304 1 4
0304 5 5
0304 3 6
0304 6 7
0304 5 8
0304 1 9
0304 2 10
0304 4 11
0304 1 12
0304 8 13
0304 12 14
0304 13 15
0304 9 16
0304 17 17
0304 2 18
0304 17 19
0304 17 20
0304 17 21
0304 18 22
0304 19 23
0304 20 24
0304 1 25
0305 3 1
0305 2 2
0305 5 3
0305 5 4
0305 5 5
0305 1 6
0305 5 7
0305 4 8
0305 7 9
0306 1 1
0306 6 2
0306 4 3
0306 4 4
0306 4 5
0306 6 6
0306 6 7
0306 7 8
0306 9 9
0306 9 10
0306 1 11
0306 4 12
0306 6 13
0306 1 14
0307 1 1
0307 1 2
0307 1 3
0307 3 4
0307 4 5
0307 8 6
0307 4 7
0307 7 8
0307 6 9
0307 7 10
0307 11 11
0307 8 12
0307 11 13
0307 8 14
0307 12 15
0307 13 16
0307 11 17
0308 1 1
0308 2 2
0308 3 3
0308 4 4
0308 2 5
0309 4 1
0309 2 2
0309 3 3
0309 4 4
0309 2 5
0310 1 1
0310 4 2
0310 3 3
0310 11 4
0310 5 5
0310 6 6
0310 7 7
0310 8 8
0310 3 9
0310 4 10
0310 11 11
0310 15 12
0310 11 13
0310 15 14
0310 1 15
0311 2 1
0311 2 2
0311 2 3
0311 6 4
0311 4 5
0311 5 6
0311 6 7
0311 7 8
0311 8 9
0311 9 10
0311 12 11
0311 8 12
0311 10 13
0311 11 14
0311 10 15
0311 1 16
0312 2 1
0312 2 2
0312 2 3
0312 8 4
0312 2 5
0312 9 6
0312 1 7
0313 1 1
0313 2 2
0313 10 3
0313 4 4
0313 1 5
0313 4 6
0313 7 7
0313 8 8
0313 10 9
0313 15 10
0313 10 11
0313 10 12
0313 13 13
0313 9 14
0313 10 15
0313 15 16
0313 7 17
0313 9 18
0313 13 19
0313 18 20
0314 1 1
0314 4 2
0314 14 3
0314 7 4
0314 7 5
0314 7 6
0314 9 7
0314 8 8
0314 10 9
0314 7 10
0314 10 11
0314 15 12
0314 7 13
0314 7 14
0314 1 15
0315 3 1
0315 1 2
0315 2 3
0315 3 4
0315 4 5
0315 5 6
0315 2 7
0315 17 8
0315 8 9
0315 9 10
0315 10 11
0315 11 12
0315 11 13
0315 12 14
0315 13 15
0315 3 16
0315 15 17
0315 15 18
0315 15 19
0315 10 20
0315 17 21
0315 1 22
0316 4 1
0316 5 2
0316 4 3
0316 1 4
0316 2 5
0316 2 6
0316 7 7
0316 6 8
0316 9 9
0316 9 10
0316 7 11
0316 11 12
0316 13 13
0316 14 14
0316 15 15
0316 16 16
0316 17 17
0316 17 18
0316 18 19
0316 14 20
0316 19 21
0316 18 22
0316 18 23
0316 1 24
0317 1 1
0317 7 2
0317 6 3
0317 14 4
0317 8 5
0317 9 6
0317 11 7
0317 5 8
0317 9 9
0317 9 10
0317 14 11
0317 14 12
0317 14 13
0317 1 14
0318 1 1
0318 2 2
0318 4 3
0318 18 4
0318 6 5
0318 7 6
0318 6 7
0318 16 8
0318 10 9
0318 8 10
0318 12 11
0318 15 12
0318 15 13
0318 10 14
0318 16 15
0318 18 16
0318 18 17
0318 1 18
0319 1 1
0319 2 2
0319 3 3
0319 5 4
0319 6 5
0319 5 6
0319 5 7
0319 1 8
0320 1 1
0320 2 2
0320 3 3
0320 12 4
0320 6 5
0320 5 6
0320 6 7
0320 7 8
0320 10 9
0320 6 10
0320 11 11
0320 18 12
0320 19 13
0320 3 14
0320 20 15
0320 13 16
0320 6 17
0320 3 18
0320 11 19
0320 12 20
0320 1 21
0321 1 1
0321 5 2
0321 2 3
0321 13 4
0321 9 5
0321 8 6
0321 7 7
0321 22 8
0321 10 9
0321 11 10
0321 12 11
0321 12 12
0321 13 13
0321 14 14
0321 15 15
0321 16 16
0321 17 17
0321 11 18
0321 18 19
0321 12 20
0321 12 21
0321 13 22
0321 14 23
0321 22 24
0321 13 25
0321 22 26
0321 5 27
0321 25 28
0321 26 29
0321 1 30
0322 1 1
0322 2 2
0322 11 3
0322 10 4
0322 7 5
0322 4 6
0322 5 7
0322 4 8
0322 7 9
0322 16 10
0322 11 11
0322 10 12
0322 10 13
0322 7 14
0322 1 15
0322 15 16
0322 21 17
0322 7 18
0322 10 19
0322 17 20
0322 23 21
0322 24 22
0322 26 23
0323 1 1
0323 21 2
0323 3 3
0323 4 4
0323 9 5
0323 6 6
0323 21 7
0323 7 8
0323 21 9
0323 1 10
0323 6 11
0323 6 12
0323 10 13
0323 12 14
0323 12 15
0323 9 16
0323 13 17
0323 15 18
0323 15 19
0323 16 20
0323 8 21
0323 9 22
0323 10 23
0323 21 24
0323 21 25
0323 2 26
0323 25 27
0323 14 28
0323 25 29
0323 1 30
0324 4 1
0324 5 2
0324 5 3
0324 4 4
0324 5 5
0324 8 6
0324 3 7
0324 5 8
0324 8 9
0324 7 10
0324 8 11
0324 9 12
0324 9 13
0324 10 14
0324 1 15
0325 1 1
0325 15 2
0325 2 3
0325 3 4
0325 4 5
0325 4 6
0325 5 7
0325 7 8
0325 4 9
0325 7 10
0325 15 11
0325 15 12
0325 10 13
0325 15 14
0325 8 15
0325 11 16
0325 11 17
0325 1 18
0325 15 19
0325 13 20
0325 10 21
0325 15 22
0325 13 23
0325 15 24
0325 15 25
0325 15 26
0325 1 27
0326 1 1
0326 2 2
0326 16 3
0326 16 4
0326 5 5
0326 5 6
0326 10 7
0326 11 8
0326 13 9
0326 18 10
0326 18 11
0326 6 12
0326 16 13
0326 1 14
0327 1 1
0327 2 2
0327 2 3
0327 3 4
0327 5 5
0327 5 6
0327 6 7
0327 8 8
0327 5 9
0327 5 10
0327 6 11
0327 5 12
0327 5 13
0327 6 14
0327 6 15
0327 12 16
0327 10 17
0327 9 18
0327 11 19
0327 13 20
0327 11 21
0327 16 22
0327 15 23
0327 15 24
0327 15 25
0327 14 26
0327 17 27
0327 1 28
0328 1 1
0328 11 2
0328 1 3
0328 11 4
0328 5 5
0328 5 6
0328 6 7
0328 4 8
0328 8 9
0328 7 10
0328 9 11
0328 11 12
0328 9 13
0328 10 14
0328 11 15
0328 12 16
0328 11 17
0328 12 18
0328 11 19
0328 14 20
0328 1 21
0329 1 1
0329 2 2
0329 2 3
0329 3 4
0329 4 5
0329 5 6
0329 6 7
0329 7 8
0329 7 9
0329 1 10
0330 1 1
0330 2 2
0330 3 3
0330 10 4
0330 3 5
0330 3 6
0330 6 7
0330 6 8
0330 9 9
0330 10 10
0330 9 11
0330 10 12
0330 10 13
0330 8 14
0330 10 15
0330 10 16
0330 11 17
0331 1 1
0331 4 2
0331 3 3
0331 1 4
0331 6 5
0331 6 6
0331 8 7
0331 9 8
0331 10 9
0331 21 10
0331 21 11
0331 21 12
0331 13 13
0331 21 14
0331 15 15
0331 7 16
0331 15 17
0331 16 18
0331 7 19
0331 15 20
0331 16 21
0331 7 22
0331 21 23
0331 18 24
0331 19 25
0331 20 26
0331 1 27
0332 1 1
0332 4 2
0332 4 3
0332 3 4
0332 5 5
0332 4 6
0332 4 7
0332 3 8
0333 2 1
0333 3 2
0333 4 3
0333 5 4
0333 10 5
0333 6 6
0333 8 7
0333 7 8
0333 10 9
0333 1 10
0334 1 1
0334 2 2
0334 3 3
0334 4 4
0334 8 5
0334 8 6
0334 11 7
0334 13 8
0334 5 9
0334 11 10
0334 10 11
0334 15 12
0334 17 13
0334 20 14
0334 7 15
0334 5 16
0334 19 17
0334 1 18
0335 2 1
0335 3 2
0335 2 3
0335 4 4
0335 8 5
0335 6 6
0335 6 7
0335 8 8
0335 3 9
0335 10 10
0335 11 11
0335 11 12
0335 11 13
0335 10 14
0335 13 15
0335 14 16
0336 3 1
0336 4 2
0336 1 3
0336 3 4
0336 11 5
0336 12 6
0336 9 7
0336 14 8
0336 8 9
0336 6 10
0336 11 11
0336 7 12
0336 9 13
0336 9 14
0336 1 15
0337 1 1
0337 3 2
0337 4 3
0337 5 4
0337 6 5
0337 4 6
0337 6 7
0337 9 8
0337 3 9
0337 1 10
0338 1 1
0338 2 2
0338 5 3
0338 9 4
0338 11 5
0338 5 6
0338 6 7
0338 5 8
0338 15 9
0338 3 10
0338 15 11
0338 15 12
0338 5 13
0338 16 14
0338 17 15
0338 5 16
0338 17 17
0338 2 18
0338 3 19
0338 4 20
0338 17 21
0339 4 1
0339 4 2
0339 2 3
0339 3 4
0339 4 5
0339 6 6
0339 7 7
0339 4 8
0339 8 9
0339 8 10
0339 11 11
0339 9 12
0339 10 13
0339 23 14
0339 14 15
0339 15 16
0339 21 17
0339 23 18
0339 23 19
0339 16 20
0339 23 21
0339 23 22
0339 1 23
0340 8 1
0340 8 2
0340 5 3
0340 1 4
0340 2 5
0340 3 6
0340 5 7
0340 4 8
0340 6 9
0340 7 10
0340 9 11
0340 14 12
0340 11 13
0340 11 14
0340 12 15
0340 2 16
0340 13 17
0340 14 18
0340 15 19
0340 16 20
0340 17 21
0340 19 22
0340 20 23
0340 18 24
0340 12 25
0341 1 1
0341 1 2
0341 4 3
0341 7 4
0341 7 5
0341 1 6
0342 1 1
0342 3 2
0342 4 3
0342 5 4
0342 4 5
0342 6 6
0342 7 7
0342 16 8
0342 7 9
0342 8 10
0342 16 11
0342 13 12
0342 15 13
0342 16 14
0342 15 15
0342 17 16
0342 16 17
0342 16 18
0342 1 19
0343 1 1
0343 2 2
0343 1 3
0343 1 4
0343 4 5
0343 4 6
0343 5 7
0343 6 8
0343 3 9
0344 1 1
0344 1 2
0344 2 3
0344 2 4
0344 4 5
0344 4 6
0344 5 7
0344 5 8
0344 5 9
0345 1 1
0345 1 2
0345 1 3
0345 2 4
0346 8 1
0346 2 2
0346 20 3
0346 8 4
0346 7 5
0346 4 6
0346 6 7
0346 6 8
0346 4 9
0346 10 10
0346 6 11
0346 8 12
0346 21 13
0346 5 14
0346 18 15
0346 12 16
0346 4 17
0346 13 18
0346 5 19
0346 6 20
0346 12 21
0346 18 22
0346 20 23
0346 15 24
0346 7 25
0346 20 26
0346 19 27
0346 12 28
0346 1 29
0347 1 1
0347 2 2
0347 4 3
0347 5 4
0347 2 5
0347 9 6
0347 10 7
0347 3 8
0348 1 1
0348 1 2
0348 4 3
0348 5 4
0348 7 5
0348 6 6
0348 5 7
0348 10 8
0348 7 9
0348 7 10
0348 5 11
0348 4 12
0348 10 13
0348 9 14
0348 13 15
0348 11 16
0348 14 17
0348 15 18
0348 17 19
0348 16 20
0348 13 21
0348 17 22
0349 2 1
0349 3 2
0349 7 3
0349 12 4
0349 9 5
0349 12 6
0349 8 7
0349 7 8
0349 1 9
0350 2 1
0350 9 2
0350 5 3
0350 3 4
0350 5 5
0350 7 6
0350 5 7
0350 9 8
0350 5 9
0350 8 10
0350 5 11
0350 20 12
0350 9 13
0350 15 14
0350 8 15
0350 11 16
0350 13 17
0350 17 18
0350 16 19
0350 5 20
0350 11 21
0350 18 22
0350 8 23
0350 18 24
0350 20 25
0350 21 26
0350 17 27
0350 2 28
0351 1 1
0351 2 2
0351 2 3
0351 4 4
0351 5 5
0351 15 6
0351 25 7
0351 12 8
0351 13 9
0351 15 10
0351 12 11
0351 13 12
0351 14 13
0351 17 14
0351 19 15
0351 20 16
0351 15 17
0351 25 18
0351 18 19
0351 19 20
0351 25 21
0351 25 22
0351 28 23
0351 13 24
0351 28 25
0351 1 26
0352 1 1
0352 7 2
0352 5 3
0352 7 4
0352 7 5
0352 4 6
0353 1 1
0353 2 2
0353 3 3
0353 11 4
0353 5 5
0353 4 6
0353 7 7
0353 7 8
0353 11 9
0353 8 10
0353 8 11
0353 10 12
0353 12 13
0353 12 14
0353 12 15
0353 11 16
0353 14 17
0353 15 18
0353 14 19
0353 16 20
0353 17 21
0353 1 22
0354 1 1
0354 2 2
0354 17 3
0354 17 4
0354 17 5
0354 5 6
0354 10 7
0354 12 8
0354 2 9
0354 11 10
0354 13 11
0354 15 12
0354 17 13
0354 1 14
0355 1 1
0355 7 2
0355 4 3
0355 3 4
0355 5 5
0355 6 6
0355 7 7
0355 8 8
0356 1 1
0356 12 2
0356 5 3
0356 3 4
0356 3 5
0356 5 6
0356 6 7
0356 8 8
0356 9 9
0356 7 10
0356 9 11
0356 12 12
0356 5 13
0356 12 14
0356 12 15
0356 6 16
0356 12 17
0356 13 18
0356 14 19
0356 15 20
0356 5 21
0357 5 1
0357 6 2
0357 3 3
0357 3 4
0357 2 5
0357 3 6
0357 8 7
0357 9 8
0357 10 9
0357 11 10
0357 12 11
0357 11 12
0357 14 13
0357 14 14
0357 13 15
0357 1 16
0358 1 1
0358 2 2
0358 3 3
0358 2 4
0358 3 5
0358 5 6
0358 4 7
0358 6 8
0358 9 9
0358 7 10
0358 8 11
0358 2 12
0358 2 13
0358 11 14
0358 10 15
0358 11 16
0358 2 17
0358 7 18
0358 16 19
0358 1 20
0359 2 1
0359 2 2
0359 2 3
0359 4 4
0359 18 5
0359 4 6
0359 10 7
0359 18 8
0359 18 9
0359 1 10
0359 10 11
0359 10 12
0359 11 13
0359 18 14
0359 5 15
0359 9 16
0359 6 17
0359 7 18
0359 8 19
0359 9 20
0359 10 21
0359 16 22
0359 16 23
0359 18 24
0359 18 25
0359 18 26
0359 7 27
0359 18 28
0359 1 29
0360 1 1
0360 2 2
0360 3 3
0360 4 4
0360 5 5
0360 21 6
0360 8 7
0360 10 8
0360 11 9
0360 13 10
0360 21 11
0360 11 12
0360 18 13
0360 17 14
0360 17 15
0360 1 16
0361 6 1
0361 6 2
0361 4 3
0361 4 4
0361 6 5
0361 6 6
0361 8 7
0361 9 8
0361 4 9
0361 12 10
0361 9 11
0361 9 12
0361 13 13
0361 9 14
0361 9 15
0361 9 16
0361 11 17
0362 1 1
0362 3 2
0362 3 3
0362 4 4
0362 7 5
0362 6 6
0362 8 7
0362 8 8
0362 4 9
0362 7 10
0362 6 11
0362 7 12
0362 10 13
0362 12 14
0362 11 15
0362 13 16
0362 14 17
0362 15 18
0362 14 19
0362 4 20
0362 16 21
0362 18 22
0362 20 23
0362 16 24
0362 17 25
0362 16 26
0362 21 27
0362 21 28
0362 1 29
0363 10 1
0363 1 2
0363 2 3
0363 5 4
0363 13 5
0363 14 6
0363 10 7
0363 1 8
0363 1 9
0363 3 10
0363 14 11
0363 12 12
0363 14 13
0363 1 14
0364 2 1
0364 3 2
0364 4 3
0364 5 4
0364 8 5
0364 9 6
0364 9 7
0364 10 8
0365 2 1
0365 3 2
0365 4 3
0365 1 4
0365 4 5
0365 4 6
0365 2 7
0365 6 8
0365 7 9
0365 6 10
0365 9 11
0365 10 12
0366 4 1
0366 2 2
0366 4 3
0366 7 4
0366 2 5
0366 7 6
0366 7 7
0366 11 8
0366 8 9
0366 10 10
0366 7 11
0366 11 12
0366 12 13
0366 13 14
0366 11 15
0367 1 1
0367 2 2
0367 2 3
0367 3 4
0367 5 5
0367 6 6
0367 7 7
0367 1 8
0368 1 1
0368 2 2
0368 6 3
0368 3 4
0368 2 5
0368 4 6
0368 7 7
0368 1 8
0368 7 9
0368 5 10
0368 5 11
0368 7 12
0368 6 13
0368 7 14
0368 8 15
0369 1 1
0369 1 2
0369 2 3
0369 11 4
0369 7 5
0369 8 6
0369 16 7
0369 15 8
0369 9 9
0369 11 10
0369 11 11
0369 11 12
0369 11 13
0369 12 14
0369 13 15
0369 18 16
0369 13 17
0369 12 18
0369 14 19
0369 17 20
0369 16 21
0369 1 22
0370 1 1
0370 4 2
0370 2 3
0370 3 4
0370 5 5
0370 6 6
0370 6 7
0370 7 8
0370 8 9
0370 10 10
0370 1 11
0371 1 1
0371 2 2
0371 2 3
0371 7 4
0371 7 5
0371 4 6
0371 7 7
0371 8 8
0371 7 9
0371 7 10
0371 7 11
0371 8 12
0371 1 13
0372 1 1
0372 1 2
0373 1 1
0373 7 2
0373 3 3
0373 4 4
0373 4 5
0373 7 6
0373 7 7
0373 4 8
0373 7 9
0373 1 10
0374 1 1
0374 3 2
0374 4 3
0374 9 4
0374 9 5
0374 7 6
0374 12 7
0374 7 8
0374 9 9
0374 12 10
0374 9 11
0374 9 12
0374 8 13
0374 12 14
0374 13 15
0374 8 16
0374 16 17
0374 15 18
0374 16 19
0374 15 20
0374 15 21
0374 14 22
0374 2 23
0375 1 1
0375 8 2
0375 2 3
0375 3 4
0375 6 5
0375 4 6
0375 4 7
0375 9 8
0375 9 9
0375 9 10
0375 7 11
0375 8 12
0375 2 13
0375 12 14
0375 14 15
0375 11 16
0375 21 17
0375 14 18
0375 16 19
0375 18 20
0375 16 21
0375 23 22
0375 24 23
0375 24 24
0375 25 25
0375 26 26
0375 27 27
0375 1 28
0376 1 1
0376 1 2
0376 4 3
0376 3 4
0376 3 5
0376 3 6
0376 3 7
0376 3 8
0376 7 9
0376 6 10
0376 3 11
0376 14 12
0376 7 13
0376 6 14
0376 16 15
0376 8 16
0376 14 17
0376 14 18
0376 8 19
0376 15 20
0376 12 21
0376 1 22
0377 1 1
0377 2 2
0377 3 3
0377 3 4
0377 4 5
0377 5 6
0377 6 7
0377 4 8
0377 12 9
0377 11 10
0377 7 11
0377 10 12
0377 10 13
0377 7 14
0377 4 15
0377 9 16
0377 1 17
0378 1 1
0378 1 2
0378 5 3
0378 8 4
0378 7 5
0378 6 6
0378 4 7
0378 7 8
0378 8 9
0379 1 1
0379 2 2
0379 2 3
0379 4 4
0379 3 5
0379 5 6
0379 4 7
0379 5 8
0380 1 1
0380 1 2
0380 5 3
0380 4 4
0380 3 5
0380 15 6
0380 14 7
0380 10 8
0380 10 9
0380 7 10
0380 5 11
0380 13 12
0380 14 13
0380 14 14
0380 3 15
0380 20 16
0380 19 17
0380 3 18
0380 18 19
0380 7 20
0380 22 21
0380 22 22
0380 23 23
0380 10 24
0381 1 1
0381 4 2
0381 14 3
0381 18 4
0381 19 5
0381 4 6
0381 4 7
0381 3 8
0381 4 9
0381 11 10
0381 8 11
0381 21 12
0381 5 13
0381 7 14
0381 10 15
0381 21 16
0381 20 17
0381 3 18
0381 12 19
0381 1 20
0382 6 1
0382 2 2
0382 8 3
0382 4 4
0382 4 5
0382 5 6
0382 4 7
0382 5 8
0382 5 9
0382 6 10
0382 7 11
0382 9 12
0382 11 13
0382 10 14
0382 11 15
0382 1 16
0383 4 1
0383 10 2
0383 3 3
0383 2 4
0383 5 5
0383 5 6
0383 3 7
0383 6 8
0383 7 9
0383 3 10
0383 7 11
0383 7 12
0383 7 13
0383 3 14
0383 1 15
0384 1 1
0384 2 2
0384 2 3
0384 3 4
0384 4 5
0384 5 6
0384 6 7
0384 7 8
0384 9 9
0384 10 10
0384 9 11
0384 9 12
0384 10 13
0384 7 14
0384 12 15
0384 1 16
0385 7 1
0385 8 2
0385 8 3
0385 3 4
0385 2 5
0385 3 6
0385 3 7
0385 8 8
0385 5 9
0385 1 10
0386 1 1
0386 2 2
0386 3 3
0386 4 4
0386 4 5
0386 4 6
0386 1 7
0387 8 1
0387 2 2
0387 2 3
0387 3 4
0387 1 5
0387 6 6
0387 7 7
0387 8 8
0387 11 9
0387 8 10
0387 13 11
0387 15 12
0387 16 13
0387 17 14
0387 18 15
0387 17 16
0387 19 17
0387 20 18
0387 1 19
0387 20 20
0387 24 21
0387 8 22
0387 25 23
0387 25 24
0387 1 25
0387 27 26
0387 1 27
0388 13 1
0388 2 2
0388 3 3
0388 1 4
0388 3 5
0388 4 6
0388 6 7
0388 6 8
0388 4 9
0388 6 10
0388 5 11
0388 8 12
0388 9 13
0388 10 14
0388 11 15
0388 11 16
0388 12 17
0388 13 18
0388 16 19
0388 15 20
0388 16 21
0388 16 22
0388 16 23
0388 6 24
0388 20 25
0388 17 26
0388 19 27
0388 13 28
0389 1 1
0389 3 2
0389 3 3
0389 10 4
0389 6 5
0389 8 6
0389 8 7
0389 7 8
0389 5 9
0389 10 10
0389 10 11
0389 5 12
0389 11 13
0389 11 14
0389 12 15
0389 13 16
0389 14 17
0389 12 18
0389 5 19
0389 16 20
0389 15 21
0389 1 22
0390 1 1
0390 2 2
0390 3 3
0390 5 4
0390 3 5
0390 6 6
0390 5 7
0390 7 8
0390 7 9
0390 4 10
0390 9 11
0390 10 12
0390 13 13
0390 12 14
0390 4 15
0390 14 16
0390 10 17
0390 19 18
0390 18 19
0390 19 20
0390 1 21
0391 1 1
0391 2 2
0391 2 3
0391 16 4
0391 4 5
0391 4 6
0391 5 7
0391 5 8
0391 6 9
0391 10 10
0391 10 11
0391 11 12
0391 6 13
0391 10 14
0391 8 15
0391 11 16
0391 8 17
0391 9 18
0391 13 19
0391 10 20
0391 15 21
0391 15 22
0391 12 23
0391 15 24
0391 18 25
0391 15 26
0391 19 27
0391 10 28
0391 1 29
0392 1 1
0392 3 2
0392 1 3
0392 3 4
0392 8 5
0392 7 6
0392 5 7
0392 7 8
0392 8 9
0392 9 10
0392 10 11
0392 7 12
0392 11 13
0392 7 14
0392 12 15
0392 1 16
0393 1 1
0393 3 2
0393 3 3
0393 4 4
0393 4 5
0393 5 6
0393 11 7
0393 7 8
0393 4 9
0393 4 10
0393 4 11
0393 9 12
0393 10 13
0393 11 14
0393 12 15
0393 14 16
0393 13 17
0393 11 18
0393 12 19
0393 1 20
0394 4 1
0394 1 2
0394 4 3
0394 1 4
0394 4 5
0394 4 6
0394 11 7
0394 6 8
0394 4 9
0394 8 10
0394 4 11
0394 7 12
0394 7 13
0394 3 14
0394 5 15
0394 5 16
0394 8 17
0394 4 18
0394 10 19
0394 4 20
0394 1 21
0395 1 1
0395 1 2
0395 12 3
0395 3 4
0395 4 5
0395 21 6
0395 7 7
0395 8 8
0395 9 9
0395 25 10
0395 3 11
0395 21 12
0395 19 13
0395 21 14
0395 1 15
0395 10 16
0395 21 17
0395 22 18
0395 7 19
0395 5 20
0395 24 21
0395 15 22
0395 29 23
0395 29 24
0395 1 25
0396 1 1
0396 2 2
0396 6 3
0396 17 4
0396 13 5
0396 4 6
0396 5 7
0396 7 8
0396 6 9
0396 7 10
0396 6 11
0396 1 12
0396 9 13
0396 10 14
0396 11 15
0396 10 16
0396 5 17
0396 17 18
0396 11 19
0396 2 20
0396 14 21
0396 13 22
0396 1 23
0396 13 24
0396 15 25
0396 11 26
0396 13 27
0396 14 28
0396 1 29
0397 3 1
0397 3 2
0397 1 3
0397 10 4
0397 6 5
0397 6 6
0397 7 7
0397 10 8
0397 1 9
0398 1 1
0398 5 2
0398 4 3
0398 2 4
0398 5 5
0398 5 6
0398 8 7
0398 5 8
0398 9 9
0398 9 10
0398 11 11
0398 11 12
0398 11 13
0398 10 14
0398 13 15
0398 1 16
0399 1 1
0399 3 2
0399 2 3
0399 2 4
0399 6 5
0399 2 6
0399 4 7
0399 5 8
0399 6 9
0399 6 10
0399 1 11
0400 1 1
0400 2 2
0400 6 3
0400 8 4
0400 11 5
0400 9 6
0400 8 7
0400 8 8
0400 23 9
0400 9 10
0400 2 11
0400 14 12
0400 11 13
0400 13 14
0400 12 15
0400 14 16
0400 19 17
0400 17 18
0400 17 19
0400 16 20
0400 22 21
0400 19 22
0400 20 23
0400 15 24
0400 22 25
0400 11 26
0400 27 27
0400 17 28
0400 1 29
0401 1 1
0401 1 2
0401 2 3
0401 7 4
0401 3 5
0401 1 6
0401 2 7
0401 5 8
0401 4 9
0401 5 10
0401 6 11
0401 7 12
0401 1 13
0402 10 1
0402 3 2
0402 4 3
0402 5 4
0402 1 5
0402 7 6
0402 8 7
0402 5 8
0402 10 9
0402 1 10
0402 10 11
0402 11 12
0402 13 13
0402 1 14
0402 16 15
0402 14 16
0402 11 17
0402 16 18
0402 17 19
0402 16 20
0402 15 21
0402 10 22
0402 18 23
0402 19 24
0402 19 25
0402 3 26
0403 1 1
0403 2 2
0403 7 3
0403 3 4
0403 3 5
0403 4 6
0403 2 7
0403 7 8
0403 7 9
0403 11 10
0403 9 11
0403 8 12
0403 11 13
0403 12 14
0404 1 1
0404 2 2
0404 3 3
0404 2 4
0404 4 5
0404 5 6
0404 6 7
0404 7 8
0404 8 9
0404 9 10
0404 9 11
0404 9 12
0404 5 13
0404 11 14
0404 7 15
0404 8 16
0404 8 17
0405 1 1
0405 1 2
0405 4 3
0405 2 4
0405 5 5
0405 5 6
0405 6 7
0405 7 8
0405 7 9
0406 4 1
0406 4 2
0406 4 3
0406 2 4
0406 3 5
0406 5 6
0406 5 7
0406 6 8
0406 7 9
0406 8 10
0406 9 11
0406 10 12
0406 11 13
0406 11 14
0406 11 15
0406 13 16
0406 13 17
0406 1 18
0406 16 19
0406 1 20
0406 15 21
0406 1 22
0407 3 1
0407 1 2
0407 3 3
0407 1 4
0407 2 5
0407 2 6
0407 3 7
0408 1 1
0408 5 2
0408 6 3
0408 6 4
0408 7 5
0408 7 6
0408 1 7
0409 1 1
0409 2 2
0409 4 3
0409 3 4
0409 4 5
0409 4 6
0409 11 7
0409 12 8
0409 13 9
0409 14 10
0409 15 11
0409 16 12
0409 17 13
0409 18 14
0409 11 15
0409 1 16
0410 1 1
0410 1 2
0410 2 3
0410 6 4
0410 4 5
0410 5 6
0410 6 7
0410 8 8
0410 5 9
0410 11 10
0410 12 11
0410 12 12
0410 15 13
0410 15 14
0410 4 15
0410 17 16
0410 5 17
0410 18 18
0410 19 19
0410 22 20
0410 1 21
0411 1 1
0411 5 2
0411 6 3
0411 23 4
0411 5 5
0411 7 6
0411 8 7
0411 9 8
0411 19 9
0411 8 10
0411 10 11
0411 10 12
0411 11 13
0411 19 14
0411 11 15
0411 12 16
0411 14 17
0411 18 18
0411 13 19
0411 15 20
0411 16 21
0411 17 22
0411 17 23
0411 18 24
0411 14 25
0411 21 26
0411 19 27
0411 19 28
0411 1 29
0412 1 1
0412 5 2
0412 1 3
0412 3 4
0412 5 5
0412 8 6
0412 15 7
0412 2 8
0412 2 9
0412 4 10
0412 14 11
0412 6 12
0412 13 13
0412 13 14
0412 7 15
0412 8 16
0412 9 17
0412 10 18
0412 8 19
0412 13 20
0412 15 21
0412 14 22
0412 3 23
0412 8 24
0412 8 25
0412 1 26
0413 21 1
0413 9 2
0413 17 3
0413 1 4
0413 4 5
0413 4 6
0413 16 7
0413 7 8
0413 6 9
0413 10 10
0413 22 11
0413 11 12
0413 13 13
0413 14 14
0413 15 15
0413 16 16
0413 14 17
0413 17 18
0413 3 19
0413 19 20
0413 22 21
0413 3 22
0413 22 23
0413 12 24
0414 2 1
0414 2 2
0414 3 3
0414 1 4
0414 4 5
0414 10 6
0414 6 7
0414 5 8
0414 6 9
0414 6 10
0414 10 11
0414 10 12
0414 4 13
0414 1 14
0415 4 1
0415 2 2
0415 1 3
0415 2 4
0415 7 5
0415 7 6
0415 7 7
0415 4 8
0415 7 9
0415 16 10
0415 6 11
0415 7 12
0415 12 13
0415 7 14
0415 12 15
0415 17 16
0415 11 17
0415 15 18
0415 12 19
0415 10 20
0415 15 21
0415 16 22
0415 12 23
0415 12 24
0415 1 25
0416 1 1
0416 3 2
0416 3 3
0416 4 4
0416 5 5
0416 6 6
0416 7 7
0416 7 8
0416 6 9
0416 3 10
0416 13 11
0416 4 12
0416 13 13
0416 13 14
0416 1 15
0417 1 1
0417 3 2
0417 5 3
0417 3 4
0417 9 5
0417 9 6
0417 11 7
0417 6 8
0417 8 9
0417 7 10
0417 5 11
0417 18 12
0417 12 13
0417 13 14
0417 14 15
0417 14 16
0417 14 17
0417 10 18
0417 22 19
0417 15 20
0417 18 21
0417 6 22
0417 18 23
0417 10 24
0417 16 25
0417 17 26
0417 21 27
0417 10 28
0417 20 29
0417 1 30
0418 1 1
0418 2 2
0418 1 3
0418 4 4
0418 4 5
0418 11 6
0418 12 7
0418 10 8
0418 11 9
0418 9 10
0418 9 11
0418 15 12
0418 12 13
0418 10 14
0418 11 15
0418 13 16
0418 16 17
0418 12 18
0418 13 19
0418 13 20
0418 19 21
0418 13 22
0418 7 23
0418 7 24
0418 22 25
0418 1 26
0419 1 1
0419 2 2
0419 3 3
0419 2 4
0419 3 5
0419 8 6
0419 7 7
0419 8 8
0419 7 9
0419 17 10
0419 3 11
0419 11 12
0419 11 13
0419 13 14
0419 15 15
0419 14 16
0419 3 17
0419 20 18
0419 17 19
0419 20 20
0419 1 21
0420 1 1
0420 1 2
0420 4 3
0420 5 4
0420 6 5
0420 3 6
0420 3 7
0420 3 8
0420 7 9
0420 7 10
0420 7 11
0420 9 12
0420 9 13
0420 10 14
0420 11 15
0420 1 16
0421 1 1
0421 2 2
0421 4 3
0421 3 4
0421 6 5
0421 5 6
0421 6 7
0421 2 8
0421 10 9
0421 10 10
0421 6 11
0421 2 12
0421 8 13
0421 12 14
0421 12 15
0421 16 16
0421 18 17
0421 18 18
0421 15 19
0421 18 20
0421 15 21
0421 16 22
0421 18 23
0421 10 24
0421 19 25
0421 20 26
0421 20 27
0421 10 28
0421 10 29
0421 1 30
0422 1 1
0422 3 2
0422 4 3
0422 5 4
0422 6 5
0422 4 6
0422 8 7
0422 11 8
0422 11 9
0422 8 10
0422 13 11
0422 14 12
0422 14 13
0422 1 14
0423 1 1
0423 2 2
0423 2 3
0423 4 4
0423 4 5
0423 4 6
0423 7 7
0423 5 8
0423 8 9
0423 7 10
0423 8 11
0423 9 12
0423 10 13
0423 11 14
0423 12 15
0423 12 16
0423 1 17
0424 1 1
0424 2 2
0424 2 3
0424 6 4
0424 4 5
0424 4 6
0424 5 7
0424 4 8
0424 6 9
0424 4 10
0424 7 11
0424 7 12
0424 6 13
0424 7 14
0424 1 15
0425 1 1
0425 2 2
0425 1 3
0425 4 4
0425 5 5
0425 3 6
0425 4 7
0425 1 8
0425 5 9
0425 11 10
0425 10 11
0425 10 12
0425 11 13
0425 10 14
0425 7 15
0425 13 16
0425 10 17
0425 15 18
0425 25 19
0425 10 20
0425 19 21
0425 2 22
0425 25 23
0425 4 24
0425 7 25
0425 25 26
0425 25 27
0425 15 28
0425 25 29
0425 7 30
0426 1 1
0426 3 2
0426 3 3
0426 4 4
0426 6 5
0426 4 6
0426 5 7
0426 15 8
0426 4 9
0426 9 10
0426 19 11
0426 12 12
0426 15 13
0426 16 14
0426 16 15
0426 19 16
0426 20 17
0426 3 18
0426 16 19
0426 17 20
0426 17 21
0426 20 22
0426 19 23
0426 11 24
0427 1 1
0427 2 2
0427 3 3
0427 4 4
0427 4 5
0427 5 6
0427 18 7
0427 7 8
0427 9 9
0427 14 10
0427 13 11
0427 15 12
0427 12 13
0427 18 14
0427 15 15
0427 19 16
0427 19 17
0427 15 18
0427 12 19
0427 18 20
0427 17 21
0427 1 22
0428 1 1
0428 2 2
0428 2 3
0428 3 4
0428 5 5
0428 4 6
0428 3 7
0429 6 1
0429 13 2
0429 3 3
0429 9 4
0429 10 5
0429 11 6
0429 11 7
0429 15 8
0429 13 9
0429 9 10
0429 12 11
0429 16 12
0429 9 13
0429 13 14
0429 8 15
0429 13 16
0429 13 17
0429 6 18
0429 1 19
0429 11 20
0429 15 21
0429 11 22
0429 13 23
0429 13 24
0429 1 25
0430 9 1
0430 2 2
0430 3 3
0430 4 4
0430 5 5
0430 1 6
0430 7 7
0430 5 8
0430 7 9
0430 10 10
0430 3 11
0430 12 12
0430 5 13
0430 10 14
0430 11 15
0430 12 16
0430 12 17
0431 1 1
0431 3 2
0431 2 3
0431 3 4
0431 5 5
0431 6 6
0431 2 7
0431 3 8
0431 3 9
0431 8 10
0431 11 11
0431 14 12
0431 2 13
0431 15 14
0431 1 15
0431 14 16
0432 1 1
0432 8 2
0432 2 3
0432 6 4
0432 5 5
0432 5 6
0432 5 7
0432 7 8
0432 9 9
0432 8 10
0432 8 11
0432 1 12
0433 1 1
0433 3 2
0433 4 3
0433 3 4
0434 1 1
0434 2 2
0434 3 3
0434 3 4
0434 5 5
0434 7 6
0434 8 7
0434 16 8
0434 8 9
0434 6 10
0434 10 11
0434 11 12
0434 13 13
0434 11 14
0434 12 15
0434 15 16
0434 14 17
0434 15 18
0434 15 19
0434 1 20
0435 22 1
0435 13 2
0435 3 3
0435 4 4
0435 14 5
0435 5 6
0435 13 7
0435 6 8
0435 6 9
0435 1 10
0435 8 11
0435 9 12
0435 10 13
0435 11 14
0435 13 15
0435 13 16
0435 15 17
0435 17 18
0435 17 19
0435 17 20
0435 9 21
0435 1 22
0435 20 23
0435 9 24
0435 22 25
0435 23 26
0435 1 27
0436 1 1
0436 1 2
0436 7 3
0436 18 4
0436 18 5
0436 5 6
0436 3 7
0436 4 8
0436 5 9
0436 6 10
0436 7 11
0436 8 12
0436 13 13
0436 7 14
0436 11 15
0436 12 16
0436 13 17
0436 5 18
0436 16 19
0436 5 20
0436 18 21
0436 19 22
0436 21 23
0436 20 24
0436 21 25
0436 1 26
0437 2 1
0437 3 2
0437 2 3
0437 6 4
0437 5 5
0437 3 6
0437 4 7
0437 15 8
0437 9 9
0437 9 10
0437 6 11
0437 15 12
0437 8 13
0437 14 14
0437 15 15
0437 15 16
0437 17 17
0438 1 1
0438 2 2
0438 2 3
0438 4 4
0438 4 5
0438 5 6
0438 6 7
0438 7 8
0438 8 9
0438 9 10
0438 10 11
0438 12 12
0438 12 13
0438 14 14
0438 14 15
0438 15 16
0438 8 17
0438 17 18
0438 17 19
0439 2 1
0439 13 2
0439 3 3
0439 5 4
0439 7 5
0439 10 6
0439 7 7
0439 8 8
0439 9 9
0439 13 10
0439 11 11
0439 13 12
0439 13 13
0439 1 14
0440 1 1
0440 3 2
0440 4 3
0440 5 4
0440 6 5
0440 6 6
0440 7 7
0440 7 8
0440 9 9
0440 7 10
0440 8 11
0440 9 12
0440 12 13
0440 10 14
0440 11 15
0440 12 16
0440 14 17
0440 15 18
0440 16 19
0441 1 1
0441 13 2
0441 2 3
0441 22 4
0441 9 5
0441 11 6
0441 10 7
0441 12 8
0441 13 9
0441 15 10
0441 14 11
0441 5 12
0441 7 13
0441 6 14
0441 10 15
0441 1 16
0442 1 1
0442 5 2
0442 2 3
0442 4 4
0442 6 5
0442 7 6
0442 6 7
0442 8 8
0442 12 9
0442 9 10
0442 10 11
0442 12 12
0442 11 13
0442 13 14
0442 8 15
0442 17 16
0442 16 17
0442 18 18
0442 18 19
0442 1 20
0443 1 1
0443 2 2
0443 2 3
0443 4 4
0443 4 5
0443 8 6
0443 6 7
0443 4 8
0443 13 9
0443 13 10
0443 10 11
0443 13 12
0443 5 13
0443 13 14
0443 13 15
0443 1 16
0444 1 1
0444 2 2
0444 3 3
0444 4 4
0444 5 5
0444 7 6
0444 14 7
0444 9 8
0444 10 9
0444 22 10
0444 12 11
0444 10 12
0444 14 13
0444 14 14
0444 22 15
0444 17 16
0444 16 17
0444 18 18
0444 22 19
0444 17 20
0444 24 21
0444 22 22
0444 23 23
0444 24 24
0444 25 25
0444 23 26
0444 27 27
0444 28 28
0444 29 29
0445 1 1
0445 25 2
0445 3 3
0445 4 4
0445 6 5
0445 6 6
0445 6 7
0445 8 8
0445 1 9
0445 12 10
0445 13 11
0445 6 12
0445 1 13
0445 25 14
0445 17 15
0445 16 16
0445 10 17
0445 20 18
0445 21 19
0445 1 20
0445 23 21
0445 21 22
0445 24 23
0445 25 24
0445 1 25
0446 4 1
0446 2 2
0446 4 3
0446 3 4
0446 4 5
0446 5 6
0446 5 7
0446 6 8
0446 6 9
0446 7 10
0446 7 11
0446 4 12
0446 8 13
0446 9 14
0446 4 15
0446 9 16
0447 1 1
0447 2 2
0447 5 3
0447 5 4
0447 4 5
0447 6 6
0447 4 7
0447 5 8
0447 6 9
