0, -38558.5747585 
1, -33224.8836524 
2, -29744.613193 
3, -27852.7180252 
4, -26949.7468542 
5, -26470.4903211 
6, -26195.9301379 
7, -26018.6883333 
8, -25892.0263518 
9, -25799.3310858 
10, -25726.972828 
11, -25669.7026312 
12, -25626.1526715 
13, -25593.0678811 
14, -25568.8123822 
15, -25548.259213 
16, -25529.3779932 
17, -25513.1083077 
18, -25498.9053686 
19, -25486.0998301 
